I (404) wifi: Total power save buffer number: 16
I (414) wifi: Init max length of beacon: 752/752
I (414) wifi: Init max length of beacon: 752/752
W (424) wifi: [beacon]new interval:100ms
I (424) mesh: <nvs>read layer:1
I (424) mesh: <nvs>read assoc:1
I (1284) wifi: Set ps type: 0

I (1284) wifi: mode : sta (24:6f:28:ae:8b:84)
I (1294) mesh: <MESH_NWK_LOOK_FOR_NETWORK>need_scan:0x1, need_scan_router:0x0, look_for_nwk_count:1
␛[0;32mI (1294) mesh_main: <MESH_EVENT_STARTED>ID:11:11:22:11:11:11␛[0m
␛[0;32mI (1294) mesh_main: mesh starts successfully, heap:185644, root not fixed
␛[0m
I (1594) mesh: [S5]lab-iot, c6:ad:34:10:1b:52, channel:1, rssi:-67
I (1594) mesh: find router:[ssid_len:7]lab-iot, rssi:-67, c6:ad:34:10:1b:52(encrypted), new channel:1, old channel:0
I (1594) mesh: [FIND][ch:1]AP:7, otherID:0, MAP:1, idle:1, candidate:0, root:0[c6:ad:34:10:1b:52]router found
I (1604) mesh: [FIND:1]find a network, channel:1, cfg<channel:1, router:lab-iot, 00:00:00:00:00:00>

␛[0;32mI (1614) mesh_main: <MESH_EVENT_FIND_NETWORK>new channel:1, router BSSID:00:00:00:00:00:00␛[0m
I (1624) wifi: mode : sta (24:6f:28:ae:8b:84) + softAP (24:6f:28:ae:8b:85)
W (1634) wifi: <MESH AP>adjust channel:1, secondary channel offset:1(40U)
I (1644) wifi: Total power save buffer number: 16
I (1944) mesh: [SCAN][ch:1]AP:8, other(ID:0, RD:0), MAP:1, idle:1, candidate:1, root:0, topMAP:0[c:1,i:1][c6:ad:34:10:1b:52]router found<>
I (1944) mesh: 1022<pre>my_vote_num:0, voter_num/max_connection:3, 2nd_layer_count:1
I (1954) mesh: 6104[SCAN]init rc[ttl:127/votes:1][24:6f:28:af:89:c9,-120]
I (1964) mesh: 6104[SCAN]init rc[ttl:127/votes:1][24:6f:28:af:89:c9,-120]
I (1974) mesh: 1250, vote myself, router rssi:-69 > voted rc_rssi:-120
I (1974) mesh: [SCAN:1/10]rc[128][24:6f:28:ae:8b:85,-69], self[24:6f:28:ae:8b:84,-69,reason:0,votes:1,idle][mine:1,voter:1(1.00)percent:1.00][128,1,24:6f:28:ae:8b:85]

I (2294) mesh: [SCAN][ch:1]AP:8, other(ID:0, RD:0), MAP:1, idle:1, candidate:1, root:0, topMAP:0[c:1,i:1][c6:ad:34:10:1b:52]router found<>
I (2294) mesh: 1022<pre>my_vote_num:0, voter_num/max_connection:3, 2nd_layer_count:1
I (2304) mesh: [SCAN:2/10]rc[128][24:6f:28:ae:8b:85,-69], self[24:6f:28:ae:8b:84,-69,reason:0,votes:1,idle][mine:1,voter:1(1.00)percent:1.00][128,1,24:6f:28:ae:8b:85]

I (2614) mesh: [SCAN][ch:1]AP:6, other(ID:0, RD:0), MAP:1, idle:1, candidate:1, root:0, topMAP:0[c:1,i:1][c6:ad:34:10:1b:52]router found<>
I (2624) mesh: 1022<pre>my_vote_num:0, voter_num/max_connection:3, 2nd_layer_count:1
I (2624) mesh: [SCAN:3/10]rc[128][24:6f:28:ae:8b:85,-69], self[24:6f:28:ae:8b:84,-69,reason:0,votes:1,idle][mine:1,voter:1(1.00)percent:1.00][128,1,24:6f:28:ae:8b:85]

I (2944) mesh: [SCAN][ch:1]AP:6, other(ID:0, RD:0), MAP:1, idle:1, candidate:1, root:0, topMAP:0[c:1,i:1][c6:ad:34:10:1b:52]router found<>
I (2944) mesh: 1022<pre>my_vote_num:0, voter_num/max_connection:3, 2nd_layer_count:1
I (2954) mesh: [SCAN:4/10]rc[128][24:6f:28:ae:8b:85,-69], self[24:6f:28:ae:8b:84,-69,reason:0,votes:1,idle][mine:1,voter:1(1.00)percent:1.00][128,1,24:6f:28:ae:8b:85]

I (3274) mesh: [SCAN][ch:1]AP:7, other(ID:0, RD:0), MAP:1, idle:1, candidate:1, root:0, topMAP:0[c:1,i:1][c6:ad:34:10:1b:52]router found<>
I (3274) mesh: 1022<pre>my_vote_num:1, voter_num/max_connection:3, 2nd_layer_count:1
I (3274) mesh: [SCAN:5/10]rc[128][24:6f:28:ae:8b:85,-69], self[24:6f:28:ae:8b:84,-68,reason:0,votes:2,idle][mine:2,voter:2(1.00)percent:1.00][128,2,24:6f:28:ae:8b:85]

I (3594) mesh: [SCAN][ch:1]AP:6, other(ID:0, RD:0), MAP:1, idle:1, candidate:1, root:0, topMAP:0[c:1,i:1][c6:ad:34:10:1b:52]router found<>
I (3594) mesh: 1022<pre>my_vote_num:1, voter_num/max_connection:3, 2nd_layer_count:1
I (3604) mesh: [SCAN:6/10]rc[128][24:6f:28:ae:8b:85,-69], self[24:6f:28:ae:8b:84,-68,reason:0,votes:2,idle][mine:2,voter:2(1.00)percent:1.00][128,2,24:6f:28:ae:8b:85]

I (3924) mesh: [SCAN][ch:1]AP:6, other(ID:0, RD:0), MAP:1, idle:1, candidate:1, root:0, topMAP:0[c:1,i:1][c6:ad:34:10:1b:52]router found<>
I (3924) mesh: 1022<pre>my_vote_num:1, voter_num/max_connection:3, 2nd_layer_count:1
I (3934) mesh: [SCAN:7/10]rc[128][24:6f:28:ae:8b:85,-69], self[24:6f:28:ae:8b:84,-69,reason:0,votes:2,idle][mine:2,voter:2(1.00)percent:1.00][128,2,24:6f:28:ae:8b:85]

I (4244) mesh: [SCAN][ch:1]AP:7, other(ID:0, RD:0), MAP:1, idle:1, candidate:1, root:0, topMAP:0[c:1,i:1][c6:ad:34:10:1b:52]router found<>
I (4244) mesh: 1022<pre>my_vote_num:1, voter_num/max_connection:3, 2nd_layer_count:1
I (4254) mesh: [SCAN:8/10]rc[128][24:6f:28:ae:8b:85,-69], self[24:6f:28:ae:8b:84,-69,reason:0,votes:2,idle][mine:2,voter:2(1.00)percent:1.00][128,2,24:6f:28:ae:8b:85]

I (4574) mesh: [SCAN][ch:1]AP:5, other(ID:0, RD:0), MAP:1, idle:1, candidate:1, root:0, topMAP:0[c:1,i:1][c6:ad:34:10:1b:52]router found<>
I (4574) mesh: 1022<pre>my_vote_num:1, voter_num/max_connection:3, 2nd_layer_count:1
I (4584) mesh: [SCAN:9/10]rc[128][24:6f:28:ae:8b:85,-69], self[24:6f:28:ae:8b:84,-69,reason:0,votes:2,idle][mine:2,voter:2(1.00)percent:1.00][128,2,24:6f:28:ae:8b:85]

I (4894) mesh: [SCAN][ch:1]AP:5, other(ID:0, RD:0), MAP:1, idle:1, candidate:1, root:0, topMAP:0[c:1,i:1][c6:ad:34:10:1b:52]router found<>
I (4904) mesh: 1022<pre>my_vote_num:1, voter_num/max_connection:3, 2nd_layer_count:1
I (4904) mesh: [SCAN:10/10]rc[128][24:6f:28:ae:8b:85,-69], self[24:6f:28:ae:8b:84,-69,reason:0,votes:2,idle][mine:2,voter:2(1.00)percent:1.00][128,2,24:6f:28:ae:8b:85]

I (4924) mesh: <nvs>write layer:0
I (4934) mesh: <nvs>write assoc:0
W (4934) wifi: [beacon]interval:100ms
I (4934) mesh: [DONE]connect to router:lab-iot, channel:1, rssi:-69, c6:ad:34:10:1b:52[layer:0, assoc:0], my_vote_num:2/voter_num:2, rc[24:6f:28:ae:8b:85/-69/1]
I (5064) wifi: new:<1,1>, old:<1,1>, ap:<1,1>, sta:<1,1>, prof:1
I (5064) wifi: state: init -> auth (b0)
I (5074) wifi: state: auth -> assoc (0)
I (5074) wifi: state: assoc -> run (10)
I (5084) wpa: <EAPOL>state:6
I (5084) wpa: <EAPOL>receiving the 1/4 EAPOL-Key, state:6
I (5094) wpa: <EAPOL>state:7
I (5094) wpa: <EAPOL>receiving the 3/4 EAPOL-Key, state:7
I (5094) wifi: connected with lab-iot, channel 1, 40U, bssid = c6:ad:34:10:1b:52
I (5104) wifi: pm start, type: 0

I (5114) mesh: [scan]new scanning time:600ms
W (5114) wifi: [beacon]new interval:300ms
␛[0;31mE (5114) event: invalid static ip␛[0m
I (5114) mesh: <nvs>write layer:1
␛[0;32mI (5114) mesh_main: <MESH_EVENT_PARENT_CONNECTED>layer:0-->1, parent:c6:ad:34:10:1b:52<ROOT>, ID:11:11:22:11:11:11␛[0m
␛[0;32mI (5134) mesh_main: <MESH_EVENT_TODS_REACHABLE>state:0␛[0m
␛[0;32mI (5134) mesh_main: <MESH_EVENT_ROOT_ADDRESS>root address:24:6f:28:ae:8b:85␛[0m
␛[0;32mI (5734) mesh_main: <MESH_EVENT_ROOT_GOT_IP>sta ip: 192.168.89.37, mask: 255.255.255.0, gw: 192.168.89.1␛[0m
␛[0;32mI (5734) event: sta ip: 192.168.89.37, mask: 255.255.255.0, gw: 192.168.89.1␛[0m
␛[0;31mE (8304) WIFI:: >Task broadcast <192.168.89.37:6768>␛[0m
␛[0;32mI (8304) wifi station: Packet <192.168.89.37:6768> sent !
␛[0m
␛[0;31mE (9304) WIFI:: >Task broadcast <192.168.89.37:6768>␛[0m
␛[0;32mI (9304) wifi station: Packet <192.168.89.37:6768> sent !
␛[0m
␛[0;31mE (10304) WIFI:: >Task broadcast <192.168.89.37:6768>␛[0m
␛[0;32mI (10304) wifi station: Packet <192.168.89.37:6768> sent !
␛[0m
I (10444) wifi: new:<1,1>, old:<1,1>, ap:<1,1>, sta:<1,1>, prof:1
I (10444) wifi: station: 24:6f:28:af:89:c8 join, AID=1, bgn, 40U
␛[0;33mW (10474) mesh_main: <MESH_EVENT_ROUTING_TABLE_ADD>add 1, new:2␛[0m
I (10474) mesh: <nvs>write assoc:1
␛[0;32mI (10474) mesh_main: <MESH_EVENT_CHILD_CONNECTED>aid:1, 24:6f:28:af:89:c8␛[0m
␛[0;31mE (11304) WIFI:: >Task broadcast <192.168.89.37:6768>␛[0m
␛[0;32mI (11304) wifi station: Packet <192.168.89.37:6768> sent !
␛[0m
␛[0;31mE (12304) WIFI:: >Task broadcast <192.168.89.37:6768>␛[0m
␛[0;32mI (12304) wifi station: Packet <192.168.89.37:6768> sent !
␛[0m
␛[0;31mE (13304) WIFI:: >Task broadcast <192.168.89.37:6768>␛[0m
␛[0;32mI (13304) wifi station: Packet <192.168.89.37:6768> sent !
␛[0m
␛[0;31mE (14304) WIFI:: >Task broadcast <192.168.89.37:6768>␛[0m
␛[0;32mI (14304) wifi station: Packet <192.168.89.37:6768> sent !
␛[0m
␛[0;31mE (15304) WIFI:: >Task broadcast <192.168.89.37:6768>␛[0m
␛[0;32mI (15304) wifi station: Packet <192.168.89.37:6768> sent !
␛[0m
␛[0;31mE (16304) WIFI:: >Task broadcast <192.168.89.37:6768>␛[0m
␛[0;32mI (16304) wifi station: Packet <192.168.89.37:6768> sent !
␛[0m
␛[0;31mE (17304) WIFI:: >Task broadcast <192.168.89.37:6768>␛[0m
␛[0;32mI (17304) wifi station: Packet <192.168.89.37:6768> sent !
␛[0m
␛[0;31mE (18304) WIFI:: >Task broadcast <192.168.89.37:6768>␛[0m
␛[0;32mI (18304) wifi station: Packet <192.168.89.37:6768> sent !
␛[0m
␛[0;32mI (18754) wifi station: Packet <192.168.89.40:6767> received from 676964544
␛[0m
␛[0;31mE (19304) WIFI:: >Task broadcast <192.168.89.37:6768>␛[0m
␛[0;32mI (19304) wifi station: Packet <192.168.89.37:6768> sent !
␛[0m
␛[0;31mE (20304) WIFI:: >Task broadcast <192.168.89.37:6768>␛[0m
␛[0;32mI (20304) wifi station: Packet <192.168.89.37:6768> sent !
␛[0m
␛[0;31mE (21304) WIFI:: >Task broadcast <192.168.89.37:6768>␛[0m
␛[0;32mI (21304) wifi station: Packet <192.168.89.37:6768> sent !
␛[0m
␛[0;31mE (22304) WIFI:: >Task broadcast <192.168.89.37:6768>␛[0m
␛[0;32mI (22304) wifi station: Packet <192.168.89.37:6768> sent !
␛[0m
␛[0;31mE (23304) WIFI:: >Task broadcast <192.168.89.37:6768>␛[0m
␛[0;32mI (23304) wifi station: Packet <192.168.89.37:6768> sent !
␛[0m
␛[0;32mI (23754) wifi station: Packet <192.168.89.40:6767> received from 676964544
␛[0m
␛[0;31mE (24304) WIFI:: >Task broadcast <192.168.89.37:6768>␛[0m
␛[0;32mI (24304) wifi station: Packet <192.168.89.37:6768> sent !
␛[0m
␛[0;31mE (25304) WIFI:: >Task broadcast <192.168.89.37:6768>␛[0m
␛[0;32mI (25304) wifi station: Packet <192.168.89.37:6768> sent !
␛[0m
␛[0;31mE (26304) WIFI:: >Task broadcast <192.168.89.37:6768>␛[0m
␛[0;32mI (26304) wifi station: Packet <192.168.89.37:6768> sent !
␛[0m
␛[0;31mE (27304) WIFI:: >Task broadcast <192.168.89.37:6768>␛[0m
␛[0;32mI (27304) wifi station: Packet <192.168.89.37:6768> sent !
␛[0m
␛[0;31mE (28304) WIFI:: >Task broadcast <192.168.89.37:6768>␛[0m
␛[0;32mI (28304) wifi station: Packet <192.168.89.37:6768> sent !
␛[0m
␛[0;32mI (28754) wifi station: Packet <192.168.89.40:6767> received from 676964544
␛[0m
␛[0;31mE (29304) WIFI:: >Task broadcast <192.168.89.37:6768>␛[0m
␛[0;32mI (29304) wifi station: Packet <192.168.89.37:6768> sent !
␛[0m
␛[0;31mE (30304) WIFI:: >Task broadcast <192.168.89.37:6768>␛[0m
␛[0;32mI (30304) wifi station: Packet <192.168.89.37:6768> sent !
␛[0m
␛[0;31mE (31304) WIFI:: >Task broadcast <192.168.89.37:6768>␛[0m
␛[0;32mI (31304) wifi station: Packet <192.168.89.37:6768> sent !
␛[0m
␛[0;31mE (32304) WIFI:: >Task broadcast <192.168.89.37:6768>␛[0m
␛[0;32mI (32304) wifi station: Packet <192.168.89.37:6768> sent !
␛[0m
␛[0;31mE (33304) WIFI:: >Task broadcast <192.168.89.37:6768>␛[0m
␛[0;32mI (33304) wifi station: Packet <192.168.89.37:6768> sent !
␛[0m
␛[0;32mI (33754) wifi station: Packet <192.168.89.40:6767> received from 676964544
␛[0m
␛[0;31mE (34304) WIFI:: >Task broadcast <192.168.89.37:6768>␛[0m
␛[0;32mI (34304) wifi station: Packet <192.168.89.37:6768> sent !
␛[0m
␛[0;31mE (35304) WIFI:: >Task broadcast <192.168.89.37:6768>␛[0m
␛[0;32mI (35304) wifi station: Packet <192.168.89.37:6768> sent !
␛[0m
␛[0;31mE (36304) WIFI:: >Task broadcast <192.168.89.37:6768>␛[0m
␛[0;32mI (36304) wifi station: Packet <192.168.89.37:6768> sent !
␛[0m
␛[0;31mE (37304) WIFI:: >Task broadcast <192.168.89.37:6768>␛[0m
␛[0;32mI (37304) wifi station: Packet <192.168.89.37:6768> sent !
␛[0m
␛[0;31mE (38304) WIFI:: >Task broadcast <192.168.89.37:6768>␛[0m
␛[0;32mI (38304) wifi station: Packet <192.168.89.37:6768> sent !
␛[0m
␛[0;32mI (38754) wifi station: Packet <192.168.89.40:6767> received from 676964544
␛[0m
␛[0;31mE (39304) WIFI:: >Task broadcast <192.168.89.37:6768>␛[0m
␛[0;32mI (39304) wifi station: Packet <192.168.89.37:6768> sent !
␛[0m
␛[0;31mE (40304) WIFI:: >Task broadcast <192.168.89.37:6768>␛[0m
␛[0;32mI (40304) wifi station: Packet <192.168.89.37:6768> sent !
␛[0m
␛[0;31mE (41304) WIFI:: >Task broadcast <192.168.89.37:6768>␛[0m
␛[0;32mI (41304) wifi station: Packet <192.168.89.37:6768> sent !
␛[0m
␛[0;31mE (42304) WIFI:: >Task broadcast <192.168.89.37:6768>␛[0m
␛[0;32mI (42304) wifi station: Packet <192.168.89.37:6768> sent !
␛[0m
␛[0;31mE (43304) WIFI:: >Task broadcast <192.168.89.37:6768>␛[0m
␛[0;32mI (43304) wifi station: Packet <192.168.89.37:6768> sent !
␛[0m
␛[0;32mI (43754) wifi station: Packet <192.168.89.40:6767> received from 676964544
␛[0m
␛[0;31mE (44304) WIFI:: >Task broadcast <192.168.89.37:6768>␛[0m
␛[0;32mI (44304) wifi station: Packet <192.168.89.37:6768> sent !
␛[0m
␛[0;31mE (45304) WIFI:: >Task broadcast <192.168.89.37:6768>␛[0m
␛[0;32mI (45304) wifi station: Packet <192.168.89.37:6768> sent !
␛[0m
␛[0;31mE (46304) WIFI:: >Task broadcast <192.168.89.37:6768>␛[0m
␛[0;32mI (46304) wifi station: Packet <192.168.89.37:6768> sent !
␛[0m
␛[0;31mE (47304) WIFI:: >Task broadcast <192.168.89.37:6768>␛[0m
␛[0;32mI (47304) wifi station: Packet <192.168.89.37:6768> sent !
␛[0m
␛[0;31mE (48304) WIFI:: >Task broadcast <192.168.89.37:6768>␛[0m
␛[0;32mI (48304) wifi station: Packet <192.168.89.37:6768> sent !
␛[0m
␛[0;32mI (48754) wifi station: Packet <192.168.89.40:6767> received from 676964544
␛[0m
␛[0;31mE (49304) WIFI:: >Task broadcast <192.168.89.37:6768>␛[0m
␛[0;32mI (49304) wifi station: Packet <192.168.89.37:6768> sent !
␛[0m
␛[0;31mE (50304) WIFI:: >Task broadcast <192.168.89.37:6768>␛[0m
1 -- 19 -- 192 --
1 -- 16 -- 168 -- 
8 -- 89 --
4 -- 40 --
␛[0;32mI (50304) WIFI:: MESSAGE RECEIVED >> <192.168.89.40:6767>
␛[0m
␛[0;32mI (50304) WIFI:: IP ADDRESS PARSED >> 192.168.89.40:6767
␛[0m
␛[0;31mE (50314) WIFI:: >> We are connected to the external IP here!!!
␛[0m
I (50314) mesh: <MESH_NWK_ROOT_TODS_STATE>toDS:1
␛[0;32mI (50324) mesh_main: size:2/2,send_count:0␛[0m
␛[0;32mI (50324) mesh_main: <MESH_EVENT_TODS_REACHABLE>state:1␛[0m
␛[0;32mI (50324) WIFI::  >>ROOT !!!  sent 192 168 89 40!
␛[0m
␛[0;33mW (50344) mesh_main: [ROOT-2-UNICAST:0][L:1][rtableSize:2]parent:c6:ad:34:10:1b:52 to 24:6f:28:ae:8b:84, heap:165984[err:0x0, proto:0, tos:0]␛[0m
␛[0;32mI (50354) WIFI::  >>ROOT !!!  sent 192 168 89 40!
␛[0m
␛[0;33mW (50354) mesh_main: [ROOT-2-UNICAST:0][L:1][rtableSize:2]parent:c6:ad:34:10:1b:52 to 24:6f:28:af:89:c8, heap:165984[err:0x0, proto:0, tos:0]␛[0m
␛[0;32mI (50374) WIFI:: >> START COMMUNICATION TO DS <<
␛[0m
␛[0;32mI (50374) WIFI::  ---- NO INFO YET ---
␛[0m
***ERROR*** A stack overflow in task TODS_COMMUNICAT has been detected.
abort() was called at PC 0x40086e9c on core 1

ELF file SHA256: 0000000000000000000000000000000000000000000000000000000000000000

Backtrace: 0x40086b67:0x3ffd35d0 0x40086e85:0x3ffd35f0 0x40086e9c:0x3ffd3610 0x4008cbed:0x3ffd3630 0x4008bfd8:0x3ffd3650 0x4008bf8e:0x00000000

Rebooting...
ets Jun  8 2016 00:22:57

rst:0xc (SW_CPU_RESET),boot:0x13 (SPI_FAST_FLASH_BOOT)
configsip: 0, SPIWP:0xee
clk_drv:0x00,q_drv:0x00,d_drv:0x00,cs0_drv:0x00,hd_drv:0x00,wp_drv:0x00
mode:DIO, clock div:2
load:0x3fff0018,len:4
load:0x3fff001c,len:6292
load:0x40078000,len:10112
load:0x40080400,len:6492
entry 0x40080750
␛[0;32mI (29) boot: ESP-IDF 3.30300.190916 2nd stage bootloader␛[0m
␛[0;32mI (29) boot: compile time 19:33:12␛[0m
␛[0;32mI (29) boot: Enabling RNG early entropy source...␛[0m
␛[0;32mI (34) boot: SPI Speed      : 40MHz␛[0m
␛[0;32mI (38) boot: SPI Mode       : DIO␛[0m
␛[0;32mI (42) boot: SPI Flash Size : 4MB␛[0m
␛[0;32mI (46) boot: Partition Table:␛[0m