
ELF file SHA256: 0000000000000000000000000000000000000000000000000000000000000000

Backtrace: 0x40086b67:0x3ffd4680 0x40086e85:0x3ffd46a0 0x40086e9c:0x3ffd46c0 0x4008cbed:0x3ffd46e0 0x4008bfd8:0x3ffd4700 0x4008bf8e:0x00000000

Rebooting...
ets Jun  8 2016 00:22:57

rst:0xc (SW_CPU_RESET),boot:0x13 (SPI_FAST_FLASH_BOOT)
configsip: 0, SPIWP:0xee
clk_drv:0x00,q_drv:0x00,d_drv:0x00,cs0_drv:0x00,hd_drv:0x00,wp_drv:0x00
mode:DIO, clock div:2
load:0x3fff0018,len:4
load:0x3fff001c,len:6292
load:0x40078000,len:10112
load:0x40080400,len:6492
entry 0x40080750
␛[0;32mI (29) boot: ESP-IDF 3.30300.190916 2nd stage bootloader␛[0m
␛[0;32mI (29) boot: compile time 19:46:26␛[0m
␛[0;32mI (29) boot: Enabling RNG early entropy source...␛[0m
␛[0;32mI (34) boot: SPI Speed      : 40MHz␛[0m
␛[0;32mI (38) boot: SPI Mode       : DIO␛[0m
␛[0;32mI (42) boot: SPI Flash Size : 4MB␛[0m
␛[0;32mI (46) boot: Partition Table:␛[0m
␛[0;32mI (50) boot: ## Label            Usage          Type ST Offset   Length␛[0m
␛[0;32mI (57) boot:  0 nvs              WiFi data        01 02 00009000 00006000␛[0m
␛[0;32mI (65) boot:  1 phy_init         RF data          01 01 0000f000 00001000␛[0m
␛[0;32mI (72) boot:  2 factory          factory app      00 00 00010000 00100000␛[0m
␛[0;32mI (80) boot: End of partition table␛[0m
␛[0;32mI (84) esp_image: segment 0: paddr=0x00010020 vaddr=0x3f400020 size=0x221c4 (139716) map␛[0m
␛[0;32mI (140) esp_image: segment 1: paddr=0x000321ec vaddr=0x3ffbdb60 size=0x03344 ( 13124) load␛[0m
␛[0;32mI (145) esp_image: segment 2: paddr=0x00035538 vaddr=0x40080000 size=0x00400 (  1024) load␛[0m
␛[0;32mI (147) esp_image: segment 3: paddr=0x00035940 vaddr=0x40080400 size=0x0a6d0 ( 42704) load␛[0m
␛[0;32mI (172) esp_image: segment 4: paddr=0x00040018 vaddr=0x400d0018 size=0x8dadc (580316) map␛[0m
␛[0;32mI (369) esp_image: segment 5: paddr=0x000cdafc vaddr=0x4008aad0 size=0x055e4 ( 21988) load␛[0m
␛[0;32mI (387) boot: Loaded app from partition at offset 0x10000␛[0m
␛[0;32mI (387) boot: Disabling RNG early entropy source...␛[0m
␛[0;32mI (387) cpu_start: Pro cpu up.␛[0m
␛[0;32mI (391) cpu_start: Application information:␛[0m
␛[0;32mI (396) cpu_start: Project name:     tema1␛[0m
␛[0;32mI (401) cpu_start: App version:      1.0.0␛[0m
␛[0;32mI (405) cpu_start: Compile time:     Apr  6 2020 19:46:28␛[0m
␛[0;32mI (411) cpu_start: ELF file SHA256:  0000000000000000...␛[0m
␛[0;32mI (417) cpu_start: ESP-IDF:          3.30300.190916␛[0m
␛[0;32mI (423) cpu_start: Starting app cpu, entry point is 0x4008160c␛[0m
␛[0;32mI (415) cpu_start: App cpu up.␛[0m
␛[0;32mI (434) heap_init: Initializing. RAM available for dynamic allocation:␛[0m
␛[0;32mI (440) heap_init: At 3FFAE6E0 len 0000F480 (61 KiB): DRAM␛[0m
␛[0;32mI (447) heap_init: At 3FFC7E68 len 00018198 (96 KiB): DRAM␛[0m
␛[0;32mI (453) heap_init: At 3FFE0440 len 00003AE0 (14 KiB): D/IRAM␛[0m
␛[0;32mI (459) heap_init: At 3FFE4350 len 0001BCB0 (111 KiB): D/IRAM␛[0m
␛[0;32mI (465) heap_init: At 400900B4 len 0000FF4C (63 KiB): IRAM␛[0m
␛[0;32mI (472) cpu_start: Pro cpu start user code␛[0m
␛[0;32mI (154) cpu_start: Chip Revision: 1␛[0m
␛[0;33mW (155) cpu_start: Chip revision is higher than the one configured in menuconfig. Suggest to upgrade it.␛[0m
␛[0;32mI (158) cpu_start: Starting scheduler on PRO CPU.␛[0m
␛[0;32mI (0) cpu_start: Starting scheduler on APP CPU.␛[0m
I (264) wifi: wifi driver task: 3ffb78b8, prio:23, stack:3584, core=0
␛[0;32mI (264) system_api: Base MAC address is not set, read default base MAC address from BLK0 of EFUSE␛[0m
␛[0;32mI (264) system_api: Base MAC address is not set, read default base MAC address from BLK0 of EFUSE␛[0m
I (294) wifi: wifi firmware version: aeed694
I (294) wifi: config NVS flash: enabled
I (294) wifi: config nano formating: disabled
I (294) wifi: Init dynamic tx buffer num: 32
I (304) wifi: Init data frame dynamic rx buffer num: 32
I (304) wifi: Init management frame dynamic rx buffer num: 32
I (314) wifi: Init management short buffer num: 32
I (314) wifi: Init static rx buffer size: 1600
I (324) wifi: Init static rx buffer num: 10
I (324) wifi: Init dynamic rx buffer num: 32

Brownout detector was triggered

ets Jun  8 2016 00:22:57

rst:0xc (SW_CPU_RESET),boot:0x13 (SPI_FAST_FLASH_BOOT)
configsip: 0, SPIWP:0xee
clk_drv:0x00,q_drv:0x00,d_drv:0x00,cs0_drv:0x00,hd_drv:0x00,wp_drv:0x00
mode:DIO, clock div:2
load:0x3fff0018,len:4
load:0x3fff001c,len:6292
load:0x40078000,len:10112
load:0x40080400,len:6492
entry 0x40080750
␛[0;32mI (29) boot: ESP-IDF 3.30300.190916 2nd stage bootloader␛[0m
␛[0;32mI (29) boot: compile time 19:46:26␛[0m
␛[0;32mI (29) boot: Enabling RNG early entropy source...␛[0m
␛[0;32mI (34) boot: SPI Speed      : 40MHz␛[0m
␛[0;32mI (38) boot: SPI Mode       : DIO␛[0m
␛[0;32mI (42) boot: SPI Flash Size : 4MB␛[0m
␛[0;32mI (46) boot: Partition Table:␛[0m
␛[0;32mI (50) boot: ## Label            Usage          Type ST Offset   Length␛[0m
␛[0;32mI (57) boot:  0 nvs              WiFi data        01 02 00009000 00006000␛[0m
␛[0;32mI (65) boot:  1 phy_init         RF data          01 01 0000f000 00001000␛[0m
␛[0;32mI (72) boot:  2 factory          factory app      00 00 00010000 00100000␛[0m
␛[0;32mI (80) boot: End of partition table␛[0m
␛[0;32mI (84) esp_image: segment 0: paddr=0x00010020 vaddr=0x3f400020 size=0x221c4 (139716) map␛[0m
␛[0;32mI (140) esp_image: segment 1: paddr=0x000321ec vaddr=0x3ffbdb60 size=0x03344 ( 13124) load␛[0m
␛[0;32mI (145) esp_image: segment 2: paddr=0x00035538 vaddr=0x40080000 size=0x00400 (  1024) load␛[0m
␛[0;32mI (147) esp_image: segment 3: paddr=0x00035940 vaddr=0x40080400 size=0x0a6d0 ( 42704) load␛[0m
␛[0;32mI (172) esp_image: segment 4: paddr=0x00040018 vaddr=0x400d0018 size=0x8dadc (580316) map␛[0m
␛[0;32mI (369) esp_image: segment 5: paddr=0x000cdafc vaddr=0x4008aad0 size=0x055e4 ( 21988) load␛[0m
␛[0;32mI (387) boot: Loaded app from partition at offset 0x10000␛[0m
␛[0;32mI (387) boot: Disabling RNG early entropy source...␛[0m
␛[0;32mI (387) cpu_start: Pro cpu up.␛[0m
␛[0;32mI (391) cpu_start: Application information:␛[0m
␛[0;32mI (396) cpu_start: Project name:     tema1␛[0m
␛[0;32mI (401) cpu_start: App version:      1.0.0␛[0m
␛[0;32mI (405) cpu_start: Compile time:     Apr  6 2020 19:46:28␛[0m
␛[0;32mI (411) cpu_start: ELF file SHA256:  0000000000000000...␛[0m
␛[0;32mI (417) cpu_start: ESP-IDF:          3.30300.190916␛[0m
␛[0;32mI (423) cpu_start: Starting app cpu, entry point is 0x4008160c␛[0m
␛[0;32mI (415) cpu_start: App cpu up.␛[0m
␛[0;32mI (434) heap_init: Initializing. RAM available for dynamic allocation:␛[0m
␛[0;32mI (440) heap_init: At 3FFAE6E0 len 0000F480 (61 KiB): DRAM␛[0m
␛[0;32mI (447) heap_init: At 3FFC7E68 len 00018198 (96 KiB): DRAM␛[0m
␛[0;32mI (453) heap_init: At 3FFE0440 len 00003AE0 (14 KiB): D/IRAM␛[0m
␛[0;32mI (459) heap_init: At 3FFE4350 len 0001BCB0 (111 KiB): D/IRAM␛[0m
␛[0;32mI (466) heap_init: At 400900B4 len 0000FF4C (63 KiB): IRAM␛[0m
␛[0;32mI (472) cpu_start: Pro cpu start user code␛[0m
␛[0;32mI (154) cpu_start: Chip Revision: 1␛[0m
␛[0;33mW (155) cpu_start: Chip revision is higher than the one configured in menuconfig. Suggest to upgrade it.␛[0m
␛[0;32mI (158) cpu_start: Starting scheduler on PRO CPU.␛[0m
␛[0;32mI (0) cpu_start: Starting scheduler on APP CPU.␛[0m
I (264) wifi: wifi driver task: 3ffb78b8, prio:23, stack:3584, core=0
␛[0;32mI (264) system_api: Base MAC address is not set, read default base MAC address from BLK0 of EFUSE␛[0m
␛[0;32mI (264) system_api: Base MAC address is not set, read default base MAC address from BLK0 of EFUSE␛[0m
I (294) wifi: wifi firmware version: aeed694
I (294) wifi: config NVS flash: enabled
I (294) wifi: config nano formating: disabled
I (294) wifi: Init dynamic tx buffer num: 32
I (304) wifi: Init data frame dynamic rx buffer num: 32
I (304) wifi: Init management frame dynamic rx buffer num: 32
I (314) wifi: Init management short buffer num: 32
I (314) wifi: Init static rx buffer size: 1600
I (324) wifi: Init static rx buffer num: 10
I (324) wifi: Init dynamic rx buffer num: 32

Brownout detector was triggered

ets Jun  8 2016 00:22:57

rst:0xc (SW_CPU_RESET),boot:0x13 (SPI_FAST_FLASH_BOOT)
configsip: 0, SPIWP:0xee
clk_drv:0x00,q_drv:0x00,d_drv:0x00,cs0_drv:0x00,hd_drv:0x00,wp_drv:0x00
mode:DIO, clock div:2
load:0x3fff0018,len:4
load:0x3fff001c,len:6292
load:0x40078000,len:10112
load:0x40080400,len:6492
entry 0x40080750
␛[0;32mI (29) boot: ESP-IDF 3.30300.190916 2nd stage bootloader␛[0m
␛[0;32mI (29) boot: compile time 19:46:26␛[0m
␛[0;32mI (29) boot: Enabling RNG early entropy source...␛[0m
␛[0;32mI (34) boot: SPI Speed      : 40MHz␛[0m
␛[0;32mI (38) boot: SPI Mode       : DIO␛[0m
␛[0;32mI (42) boot: SPI Flash Size : 4MB␛[0m
␛[0;32mI (46) boot: Partition Table:␛[0m
␛[0;32mI (50) boot: ## Label            Usage          Type ST Offset   Length␛[0m
␛[0;32mI (57) boot:  0 nvs              WiFi data        01 02 00009000 00006000␛[0m
␛[0;32mI (65) boot:  1 phy_init         RF data          01 01 0000f000 00001000␛[0m
␛[0;32mI (72) boot:  2 factory          factory app      00 00 00010000 00100000␛[0m
␛[0;32mI (80) boot: End of partition table␛[0m
␛[0;32mI (84) esp_image: segment 0: paddr=0x00010020 vaddr=0x3f400020 size=0x221c4 (139716) map␛[0m
␛[0;32mI (140) esp_image: segment 1: paddr=0x000321ec vaddr=0x3ffbdb60 size=0x03344 ( 13124) load␛[0m
␛[0;32mI (145) esp_image: segment 2: paddr=0x00035538 vaddr=0x40080000 size=0x00400 (  1024) load␛[0m
␛[0;32mI (147) esp_image: segment 3: paddr=0x00035940 vaddr=0x40080400 size=0x0a6d0 ( 42704) load␛[0m
␛[0;32mI (172) esp_image: segment 4: paddr=0x00040018 vaddr=0x400d0018 size=0x8dadc (580316) map␛[0m
␛[0;32mI (369) esp_image: segment 5: paddr=0x000cdafc vaddr=0x4008aad0 size=0x055e4 ( 21988) load␛[0m
␛[0;32mI (387) boot: Loaded app from partition at offset 0x10000␛[0m
␛[0;32mI (387) boot: Disabling RNG early entropy source...␛[0m
␛[0;32mI (387) cpu_start: Pro cpu up.␛[0m
␛[0;32mI (391) cpu_start: Application information:␛[0m
␛[0;32mI (396) cpu_start: Project name:     tema1␛[0m
␛[0;32mI (401) cpu_start: App version:      1.0.0␛[0m
␛[0;32mI (405) cpu_start: Compile time:     Apr  6 2020 19:46:28␛[0m
␛[0;32mI (411) cpu_start: ELF file SHA256:  0000000000000000...␛[0m
␛[0;32mI (417) cpu_start: ESP-IDF:          3.30300.190916␛[0m
␛[0;32mI (423) cpu_start: Starting app cpu, entry point is 0x4008160c␛[0m
␛[0;32mI (415) cpu_start: App cpu up.␛[0m
␛[0;32mI (434) heap_init: Initializing. RAM available for dynamic allocation:␛[0m
␛[0;32mI (440) heap_init: At 3FFAE6E0 len 0000F480 (61 KiB): DRAM␛[0m
␛[0;32mI (447) heap_init: At 3FFC7E68 len 00018198 (96 KiB): DRAM␛[0m
␛[0;32mI (453) heap_init: At 3FFE0440 len 00003AE0 (14 KiB): D/IRAM␛[0m
␛[0;32mI (459) heap_init: At 3FFE4350 len 0001BCB0 (111 KiB): D/IRAM␛[0m
␛[0;32mI (466) heap_init: At 400900B4 len 0000FF4C (63 KiB): IRAM␛[0m
␛[0;32mI (472) cpu_start: Pro cpu start user code␛[0m
␛[0;32mI (154) cpu_start: Chip Revision: 1␛[0m
␛[0;33mW (155) cpu_start: Chip revision is higher than the one configured in menuconfig. Suggest to upgrade it.␛[0m
␛[0;32mI (158) cpu_start: Starting scheduler on PRO CPU.␛[0m
␛[0;32mI (0) cpu_start: Starting scheduler on APP CPU.␛[0m
I (264) wifi: wifi driver task: 3ffb78b8, prio:23, stack:3584, core=0
␛[0;32mI (264) system_api: Base MAC address is not set, read default base MAC address from BLK0 of EFUSE␛[0m
␛[0;32mI (264) system_api: Base MAC address is not set, read default base MAC address from BLK0 of EFUSE␛[0m
I (294) wifi: wifi firmware version: aeed694
I (294) wifi: config NVS flash: enabled
I (294) wifi: config nano formating: disabled
I (294) wifi: Init dynamic tx buffer num: 32
I (304) wifi: Init data frame dynamic rx buffer num: 32
I (304) wifi: Init management frame dynamic rx buffer num: 32
I (314) wifi: Init management short buffer num: 32
I (314) wifi: Init static rx buffer size: 1600
I (324) wifi: Init static rx buffer num: 10
I (324) wifi: Init dynamic rx buffer num: 32

Brownout detector was triggered

ets Jun  8 2016 00:22:57

rst:0xc (SW_CPU_RESET),boot:0x13 (SPI_FAST_FLASH_BOOT)
configsip: 0, SPIWP:0xee
clk_drv:0x00,q_drv:0x00,d_drv:0x00,cs0_drv:0x00,hd_drv:0x00,wp_drv:0x00
mode:DIO, clock div:2
load:0x3fff0018,len:4
load:0x3fff001c,len:6292
load:0x40078000,len:10112
load:0x40080400,len:6492
entry 0x40080750
␛[0;32mI (29) boot: ESP-IDF 3.30300.190916 2nd stage bootloader␛[0m
␛[0;32mI (29) boot: compile time 19:46:26␛[0m
␛[0;32mI (29) boot: Enabling RNG early entropy source...␛[0m
␛[0;32mI (34) boot: SPI Speed      : 40MHz␛[0m
␛[0;32mI (38) boot: SPI Mode       : DIO␛[0m
␛[0;32mI (42) boot: SPI Flash Size : 4MB␛[0m
␛[0;32mI (46) boot: Partition Table:␛[0m
␛[0;32mI (50) boot: ## Label            Usage          Type ST Offset   Length␛[0m
␛[0;32mI (57) boot:  0 nvs              WiFi data        01 02 00009000 00006000␛[0m
␛[0;32mI (65) boot:  1 phy_init         RF data          01 01 0000f000 00001000␛[0m
␛[0;32mI (72) boot:  2 factory          factory app      00 00 00010000 00100000␛[0m
␛[0;32mI (80) boot: End of partition table␛[0m
␛[0;32mI (84) esp_image: segment 0: paddr=0x00010020 vaddr=0x3f400020 size=0x221c4 (139716) map␛[0m
␛[0;32mI (140) esp_image: segment 1: paddr=0x000321ec vaddr=0x3ffbdb60 size=0x03344 ( 13124) load␛[0m
␛[0;32mI (145) esp_image: segment 2: paddr=0x00035538 vaddr=0x40080000 size=0x00400 (  1024) load␛[0m
␛[0;32mI (147) esp_image: segment 3: paddr=0x00035940 vaddr=0x40080400 size=0x0a6d0 ( 42704) load␛[0m
␛[0;32mI (172) esp_image: segment 4: paddr=0x00040018 vaddr=0x400d0018 size=0x8dadc (580316) map␛[0m
␛[0;32mI (369) esp_image: segment 5: paddr=0x000cdafc vaddr=0x4008aad0 size=0x055e4 ( 21988) load␛[0m
␛[0;32mI (387) boot: Loaded app from partition at offset 0x10000␛[0m
␛[0;32mI (387) boot: Disabling RNG early entropy source...␛[0m
␛[0;32mI (387) cpu_start: Pro cpu up.␛[0m
␛[0;32mI (391) cpu_start: Application information:␛[0m
␛[0;32mI (396) cpu_start: Project name:     tema1␛[0m
␛[0;32mI (401) cpu_start: App version:      1.0.0␛[0m
␛[0;32mI (405) cpu_start: Compile time:     Apr  6 2020 19:46:28␛[0m
␛[0;32mI (411) cpu_start: ELF file SHA256:  0000000000000000...␛[0m
␛[0;32mI (417) cpu_start: ESP-IDF:          3.30300.190916␛[0m
␛[0;32mI (423) cpu_start: Starting app cpu, entry point is 0x4008160c␛[0m
␛[0;32mI (415) cpu_start: App cpu up.␛[0m
␛[0;32mI (434) heap_init: Initializing. RAM available for dynamic allocation:␛[0m
␛[0;32mI (440) heap_init: At 3FFAE6E0 len 0000F480 (61 KiB): DRAM␛[0m
␛[0;32mI (447) heap_init: At 3FFC7E68 len 00018198 (96 KiB): DRAM␛[0m
␛[0;32mI (453) heap_init: At 3FFE0440 len 00003AE0 (14 KiB): D/IRAM␛[0m
␛[0;32mI (459) heap_init: At 3FFE4350 len 0001BCB0 (111 KiB): D/IRAM␛[0m
␛[0;32mI (466) heap_init: At 400900B4 len 0000FF4C (63 KiB): IRAM␛[0m
␛[0;32mI (472) cpu_start: Pro cpu start user code␛[0m
␛[0;32mI (154) cpu_start: Chip Revision: 1␛[0m
␛[0;33mW (155) cpu_start: Chip revision is higher than the one configured in menuconfig. Suggest to upgrade it.␛[0m
␛[0;32mI (158) cpu_start: Starting scheduler on PRO CPU.␛[0m
␛[0;32mI (0) cpu_start: Starting scheduler on APP CPU.␛[0m
I (264) wifi: wifi driver task: 3ffb78b8, prio:23, stack:3584, core=0
␛[0;32mI (264) system_api: Base MAC address is not set, read default base MAC address from BLK0 of EFUSE␛[0m
␛[0;32mI (264) system_api: Base MAC address is not set, read default base MAC address from BLK0 of EFUSE␛[0m
I (294) wifi: wifi firmware version: aeed694
I (294) wifi: config NVS flash: enabled
I (294) wifi: config nano formating: disabled
I (294) wifi: Init dynamic tx buffer num: 32
I (304) wifi: Init data frame dynamic rx buffer num: 32
I (304) wifi: Init management frame dynamic rx buffer num: 32
I (314) wifi: Init management short buffer num: 32
I (314) wifi: Init static rx buffer size: 1600
I (324) wifi: Init static rx buffer num: 10
I (324) wifi: Init dynamic rx buffer num: 32

Brownout detector was triggered

ets Jun  8 2016 00:22:57

rst:0xc (SW_CPU_RESET),boot:0x13 (SPI_FAST_FLASH_BOOT)
configsip: 0, SPIWP:0xee
clk_drv:0x00,q_drv:0x00,d_drv:0x00,cs0_drv:0x00,hd_drv:0x00,wp_drv:0x00
mode:DIO, clock div:2
load:0x3fff0018,len:4
load:0x3fff001c,len:6292
load:0x40078000,len:10112
load:0x40080400,len:6492
entry 0x40080750
␛[0;32mI (29) boot: ESP-IDF 3.30300.190916 2nd stage bootloader␛[0m
␛[0;32mI (29) boot: compile time 19:46:26␛[0m
␛[0;32mI (29) boot: Enabling RNG early entropy source...␛[0m
␛[0;32mI (34) boot: SPI Speed      : 40MHz␛[0m
␛[0;32mI (38) boot: SPI Mode       : DIO␛[0m
␛[0;32mI (42) boot: SPI Flash Size : 4MB␛[0m
␛[0;32mI (46) boot: Partition Table:␛[0m
␛[0;32mI (50) boot: ## Label            Usage          Type ST Offset   Length␛[0m
␛[0;32mI (57) boot:  0 nvs              WiFi data        01 02 00009000 00006000␛[0m
␛[0;32mI (65) boot:  1 phy_init         RF data          01 01 0000f000 00001000␛[0m
␛[0;32mI (72) boot:  2 factory          factory app      00 00 00010000 00100000␛[0m
␛[0;32mI (80) boot: End of partition table␛[0m
␛[0;32mI (84) esp_image: segment 0: paddr=0x00010020 vaddr=0x3f400020 size=0x221c4 (139716) map␛[0m
␛[0;32mI (140) esp_image: segment 1: paddr=0x000321ec vaddr=0x3ffbdb60 size=0x03344 ( 13124) load␛[0m
␛[0;32mI (145) esp_image: segment 2: paddr=0x00035538 vaddr=0x40080000 size=0x00400 (  1024) load␛[0m
␛[0;32mI (147) esp_image: segment 3: paddr=0x00035940 vaddr=0x40080400 size=0x0a6d0 ( 42704) load␛[0m
␛[0;32mI (172) esp_image: segment 4: paddr=0x00040018 vaddr=0x400d0018 size=0x8dadc (580316) map␛[0m
␛[0;32mI (369) esp_image: segment 5: paddr=0x000cdafc vaddr=0x4008aad0 size=0x055e4 ( 21988) load␛[0m
␛[0;32mI (387) boot: Loaded app from partition at offset 0x10000␛[0m
␛[0;32mI (387) boot: Disabling RNG early entropy source...␛[0m
␛[0;32mI (387) cpu_start: Pro cpu up.␛[0m
␛[0;32mI (391) cpu_start: Application information:␛[0m
␛[0;32mI (396) cpu_start: Project name:     tema1␛[0m
␛[0;32mI (401) cpu_start: App version:      1.0.0␛[0m
␛[0;32mI (405) cpu_start: Compile time:     Apr  6 2020 19:46:28␛[0m
␛[0;32mI (411) cpu_start: ELF file SHA256:  0000000000000000...␛[0m
␛[0;32mI (417) cpu_start: ESP-IDF:          3.30300.190916␛[0m
␛[0;32mI (423) cpu_start: Starting app cpu, entry point is 0x4008160c␛[0m
␛[0;32mI (415) cpu_start: App cpu up.␛[0m
␛[0;32mI (434) heap_init: Initializing. RAM available for dynamic allocation:␛[0m
␛[0;32mI (440) heap_init: At 3FFAE6E0 len 0000F480 (61 KiB): DRAM␛[0m
␛[0;32mI (447) heap_init: At 3FFC7E68 len 00018198 (96 KiB): DRAM␛[0m
␛[0;32mI (453) heap_init: At 3FFE0440 len 00003AE0 (14 KiB): D/IRAM␛[0m
␛[0;32mI (459) heap_init: At 3FFE4350 len 0001BCB0 (111 KiB): D/IRAM␛[0m
␛[0;32mI (466) heap_init: At 400900B4 len 0000FF4C (63 KiB): IRAM␛[0m
␛[0;32mI (472) cpu_start: Pro cpu start user code␛[0m
␛[0;32mI (154) cpu_start: Chip Revision: 1␛[0m
␛[0;33mW (155) cpu_start: Chip revision is higher than the one configured in menuconfig. Suggest to upgrade it.␛[0m
␛[0;32mI (158) cpu_start: Starting scheduler on PRO CPU.␛[0m
␛[0;32mI (0) cpu_start: Starting scheduler on APP CPU.␛[0m
I (264) wifi: wifi driver task: 3ffb78b8, prio:23, stack:3584, core=0
␛[0;32mI (264) system_api: Base MAC address is not set, read default base MAC address from BLK0 of EFUSE␛[0m
␛[0;32mI (264) system_api: Base MAC address is not set, read default base MAC address from BLK0 of EFUSE␛[0m
I (354) wifi: wifi firmware version: aeed694
I (354) wifi: config NVS flash: enabled
I (354) wifi: config nano formating: disabled
I (354) wifi: Init dynamic tx buffer num: 32
I (364) wifi: Init data frame dynamic rx buffer num: 32
I (364) wifi: Init management frame dynamic rx buffer num: 32
I (374) wifi: Init management short buffer num: 32
I (374) wifi: Init static rx buffer size: 1600
I (384) wifi: Init static rx buffer num: 10
I (384) wifi: Init dynamic rx buffer num: 32
␛[0;32mI (484) phy: phy_version: 4102, 2fa7a43, Jul 15 2019, 13:06:06, 0, 0␛[0m
I (484) wifi: mode : sta (24:6f:28:ab:41:20) + softAP (24:6f:28:ab:41:21)
I (484) wifi: Total power save buffer number: 16
I (484) wifi: Init max length of beacon: 752/752
I (494) wifi: Init max length of beacon: 752/752
W (494) wifi: [beacon]new interval:100ms
I (504) mesh: <nvs>read layer:1
I (504) mesh: <nvs>read assoc:1
I (1364) wifi: Set ps type: 0

I (1374) wifi: mode : sta (24:6f:28:ab:41:20)
I (1374) mesh: <MESH_NWK_LOOK_FOR_NETWORK>need_scan:0x1, need_scan_router:0x0, look_for_nwk_count:1
␛[0;32mI (1374) mesh_main: <MESH_EVENT_STARTED>ID:11:11:22:11:11:11␛[0m
␛[0;32mI (1374) mesh_main: mesh starts successfully, heap:185504, root not fixed
␛[0m
I (1674) mesh: [S4]lab-iot, c6:ad:34:10:1b:52, channel:1, rssi:-64
I (1674) mesh: find router:[ssid_len:7]lab-iot, rssi:-64, c6:ad:34:10:1b:52(encrypted), new channel:1, old channel:0
I (1684) mesh: [FIND][ch:1]AP:8, otherID:0, MAP:1, idle:1, candidate:0, root:0[c6:ad:34:10:1b:52]router found
I (1694) mesh: [FIND:1]find a network, channel:1, cfg<channel:1, router:lab-iot, 00:00:00:00:00:00>

␛[0;32mI (1704) mesh_main: <MESH_EVENT_FIND_NETWORK>new channel:1, router BSSID:00:00:00:00:00:00␛[0m
I (1704) wifi: mode : sta (24:6f:28:ab:41:20) + softAP (24:6f:28:ab:41:21)
W (1714) wifi: <MESH AP>adjust channel:1, secondary channel offset:1(40U)
I (1724) wifi: Total power save buffer number: 16
I (2034) mesh: [SCAN][ch:1]AP:8, other(ID:0, RD:0), MAP:1, idle:1, candidate:1, root:0, topMAP:0[c:1,i:1][c6:ad:34:10:1b:52]router found<>
I (2034) mesh: 1022<pre>my_vote_num:0, voter_num/max_connection:3, 2nd_layer_count:1
I (2034) mesh: 6104[SCAN]init rc[ttl:127/votes:2][24:6f:28:af:89:c9,-73]
I (2044) mesh: 1250, vote myself, router rssi:-64 > voted rc_rssi:-73
I (2054) mesh: [SCAN:1/10]rc[128][24:6f:28:ab:41:21,-64], self[24:6f:28:ab:41:20,-64,reason:0,votes:1,idle][mine:1,voter:2(0.50)percent:1.00][128,1,24:6f:28:ab:41:21]

I (2364) mesh: [SCAN][ch:1]AP:7, other(ID:0, RD:0), MAP:1, idle:1, candidate:1, root:0, topMAP:0[c:1,i:1][c6:ad:34:10:1b:52]router found<>
I (2364) mesh: 1022<pre>my_vote_num:0, voter_num/max_connection:3, 2nd_layer_count:1
I (2374) mesh: [SCAN:2/10]rc[128][24:6f:28:ab:41:21,-64], self[24:6f:28:ab:41:20,-64,reason:0,votes:1,idle][mine:1,voter:2(0.50)percent:1.00][128,1,24:6f:28:ab:41:21]

I (2694) mesh: [SCAN][ch:1]AP:8, other(ID:0, RD:0), MAP:1, idle:1, candidate:1, root:0, topMAP:0[c:1,i:1][c6:ad:34:10:1b:52]router found<>
I (2694) mesh: 1022<pre>my_vote_num:0, voter_num/max_connection:3, 2nd_layer_count:1
I (2704) mesh: [SCAN:3/10]rc[128][24:6f:28:ab:41:21,-64], self[24:6f:28:ab:41:20,-64,reason:0,votes:1,idle][mine:1,voter:2(0.50)percent:1.00][128,1,24:6f:28:ab:41:21]

I (3014) mesh: [SCAN][ch:1]AP:7, other(ID:0, RD:0), MAP:1, idle:1, candidate:1, root:0, topMAP:0[c:1,i:1][c6:ad:34:10:1b:52]router found<>
I (3024) mesh: 1022<pre>my_vote_num:0, voter_num/max_connection:3, 2nd_layer_count:1
I (3024) mesh: [SCAN:4/10]rc[128][24:6f:28:ab:41:21,-64], self[24:6f:28:ab:41:20,-64,reason:0,votes:1,idle][mine:1,voter:2(0.50)percent:1.00][128,1,24:6f:28:ab:41:21]

I (3344) mesh: [SCAN][ch:1]AP:7, other(ID:0, RD:0), MAP:1, idle:1, candidate:1, root:0, topMAP:0[c:1,i:1][c6:ad:34:10:1b:52]router found<>
I (3344) mesh: 1022<pre>my_vote_num:0, voter_num/max_connection:3, 2nd_layer_count:1
I (3354) mesh: [SCAN:5/10]rc[128][24:6f:28:ab:41:21,-64], self[24:6f:28:ab:41:20,-64,reason:0,votes:1,idle][mine:1,voter:2(0.50)percent:1.00][128,1,24:6f:28:ab:41:21]

I (3674) mesh: [SCAN][ch:1]AP:8, other(ID:0, RD:0), MAP:1, idle:1, candidate:1, root:0, topMAP:0[c:1,i:1][c6:ad:34:10:1b:52]router found<>
I (3674) mesh: 1022<pre>my_vote_num:1, voter_num/max_connection:3, 2nd_layer_count:1
I (3684) mesh: [SCAN:6/10]rc[128][24:6f:28:ab:41:21,-64], self[24:6f:28:ab:41:20,-64,reason:0,votes:2,idle][mine:2,voter:2(1.00)percent:1.00][128,2,24:6f:28:ab:41:21]

I (3994) mesh: [SCAN][ch:1]AP:8, other(ID:0, RD:0), MAP:1, idle:1, candidate:1, root:0, topMAP:0[c:1,i:1][c6:ad:34:10:1b:52]router found<>
I (3994) mesh: 1022<pre>my_vote_num:1, voter_num/max_connection:3, 2nd_layer_count:1
I (4004) mesh: [SCAN:7/10]rc[128][24:6f:28:ab:41:21,-64], self[24:6f:28:ab:41:20,-64,reason:0,votes:2,idle][mine:2,voter:2(1.00)percent:1.00][128,2,24:6f:28:ab:41:21]

I (4324) mesh: [SCAN][ch:1]AP:7, other(ID:0, RD:0), MAP:1, idle:1, candidate:1, root:0, topMAP:0[c:1,i:1][c6:ad:34:10:1b:52]router found<>
I (4324) mesh: 1022<pre>my_vote_num:1, voter_num/max_connection:3, 2nd_layer_count:1
I (4334) mesh: [SCAN:8/10]rc[128][24:6f:28:ab:41:21,-64], self[24:6f:28:ab:41:20,-64,reason:0,votes:2,idle][mine:2,voter:2(1.00)percent:1.00][128,2,24:6f:28:ab:41:21]

I (4644) mesh: [SCAN][ch:1]AP:7, other(ID:0, RD:0), MAP:1, idle:1, candidate:1, root:0, topMAP:0[c:1,i:1][c6:ad:34:10:1b:52]router found<>
I (4654) mesh: 1022<pre>my_vote_num:1, voter_num/max_connection:3, 2nd_layer_count:1
I (4654) mesh: [SCAN:9/10]rc[128][24:6f:28:ab:41:21,-64], self[24:6f:28:ab:41:20,-63,reason:0,votes:2,idle][mine:2,voter:2(1.00)percent:1.00][128,2,24:6f:28:ab:41:21]

I (4974) mesh: [SCAN][ch:1]AP:7, other(ID:0, RD:0), MAP:0, idle:0, candidate:1, root:0, topMAP:0[c:1,i:1][c6:ad:34:10:1b:52]router found<>
I (4974) mesh: 1022<pre>my_vote_num:0, voter_num/max_connection:3, 2nd_layer_count:0
I (4984) mesh: 1212[SCAN]init rc[24:6f:28:ab:41:21,-64], mine:0, voter:0
I (4984) mesh: [SCAN:10/13+x+]rc[128][24:6f:28:ab:41:21,-64], self[24:6f:28:ab:41:20,-64,reason:0,votes:1,idle][mine:1,voter:1(1.00)percent:1.00][128,1,24:6f:28:ab:41:21]

I (5304) mesh: [SCAN][ch:1]AP:7, other(ID:0, RD:0), MAP:1, idle:1, candidate:1, root:0, topMAP:0[c:1,i:1][c6:ad:34:10:1b:52]router found<>
I (5304) mesh: [SCAN:11/13+x+]rc[128][24:6f:28:ab:41:21,-64], self[24:6f:28:ab:41:20,-64,reason:0,votes:2,idle][mine:2,voter:2(1.00)percent:1.00][128,2,24:6f:28:ab:41:21]

I (5624) mesh: [SCAN][ch:1]AP:7, other(ID:0, RD:0), MAP:1, idle:1, candidate:1, root:0, topMAP:0[c:0,i:1][c6:ad:34:10:1b:52]router found<>
I (5624) mesh: [SCAN:12/13+x+]rc[128][24:6f:28:ab:41:21,-64], self[24:6f:28:ab:41:20,-64,reason:0,votes:2,idle][mine:2,voter:2(1.00)percent:1.00][128,2,24:6f:28:ab:41:21]

I (5944) mesh: [SCAN][ch:1]AP:9, other(ID:0, RD:0), MAP:1, idle:1, candidate:1, root:0, topMAP:0[c:0,i:1][c6:ad:34:10:1b:52]router found<>
I (5944) mesh: [SCAN:13/13+x+]rc[128][24:6f:28:ab:41:21,-64], self[24:6f:28:ab:41:20,-64,reason:0,votes:2,idle][mine:2,voter:2(1.00)percent:1.00][128,2,24:6f:28:ab:41:21]

I (5964) mesh: <nvs>write layer:0
I (5964) mesh: <nvs>write assoc:0
W (5964) wifi: [beacon]interval:100ms
I (5974) mesh: [DONE]connect to router:lab-iot, channel:1, rssi:-64, c6:ad:34:10:1b:52[layer:0, assoc:0], my_vote_num:2/voter_num:2, rc[24:6f:28:ab:41:21/-64/1]
I (6104) wifi: new:<1,1>, old:<1,1>, ap:<1,1>, sta:<1,1>, prof:1
I (6104) wifi: state: init -> auth (b0)
I (6114) wifi: state: auth -> assoc (0)
I (6114) wifi: state: assoc -> run (10)
I (6124) wpa: <EAPOL>state:6
I (6124) wpa: <EAPOL>receiving the 1/4 EAPOL-Key, state:6
I (6134) wpa: <EAPOL>state:7
I (6134) wpa: <EAPOL>receiving the 3/4 EAPOL-Key, state:7
I (6134) wifi: connected with lab-iot, channel 1, 40U, bssid = c6:ad:34:10:1b:52
I (6144) wifi: pm start, type: 0

I (6144) mesh: [scan]new scanning time:600ms
W (6144) wifi: [beacon]new interval:300ms
␛[0;31mE (6144) event: invalid static ip␛[0m
I (6154) mesh: <nvs>write layer:1
␛[0;32mI (6154) mesh_main: <MESH_EVENT_PARENT_CONNECTED>layer:0-->1, parent:c6:ad:34:10:1b:52<ROOT>, ID:11:11:22:11:11:11␛[0m
␛[0;32mI (6164) mesh_main: <MESH_EVENT_TODS_REACHABLE>state:0␛[0m
␛[0;32mI (6174) mesh_main: <MESH_EVENT_ROOT_ADDRESS>root address:24:6f:28:ab:41:21␛[0m
␛[0;32mI (6744) mesh_main: <MESH_EVENT_ROOT_GOT_IP>sta ip: 192.168.89.40, mask: 255.255.255.0, gw: 192.168.89.1␛[0m
␛[0;32mI (6744) event: sta ip: 192.168.89.40, mask: 255.255.255.0, gw: 192.168.89.1␛[0m
I (9304) wifi: new:<1,1>, old:<1,1>, ap:<1,1>, sta:<1,1>, prof:1
I (9304) wifi: station: 24:6f:28:af:89:c8 join, AID=1, bgn, 40U
␛[0;33mW (9324) mesh_main: <MESH_EVENT_ROUTING_TABLE_ADD>add 1, new:2␛[0m
I (9324) mesh: <nvs>write assoc:1
␛[0;32mI (9334) mesh_main: <MESH_EVENT_CHILD_CONNECTED>aid:1, 24:6f:28:af:89:c8␛[0m
␛[0;31mE (9384) WIFI:: >Task broadcast <192.168.89.40:6768>␛[0m
␛[0;32mI (9384) wifi station: Packet <192.168.89.40:6768> sent !
␛[0m
␛[0;31mE (10384) WIFI:: >Task broadcast <192.168.89.40:6768>␛[0m
␛[0;32mI (10384) wifi station: Packet <192.168.89.40:6768> sent !
␛[0m
␛[0;32mI (10384) wifi station: Packet <192.168.89.37:6767> received from 626632896
␛[0m
␛[0;31mE (11384) WIFI:: >Task broadcast <192.168.89.40:6768>␛[0m
␛[0;32mI (11384) wifi station: Packet <192.168.89.40:6768> sent !
␛[0m
␛[0;31mE (12384) WIFI:: >Task broadcast <192.168.89.40:6768>␛[0m
␛[0;32mI (12384) wifi station: Packet <192.168.89.40:6768> sent !
␛[0m
␛[0;31mE (13384) WIFI:: >Task broadcast <192.168.89.40:6768>␛[0m
␛[0;32mI (13384) wifi station: Packet <192.168.89.40:6768> sent !
␛[0m
␛[0;31mE (14384) WIFI:: >Task broadcast <192.168.89.40:6768>␛[0m
␛[0;32mI (14384) wifi station: Packet <192.168.89.40:6768> sent !
␛[0m
␛[0;31mE (15384) WIFI:: >Task broadcast <192.168.89.40:6768>␛[0m
␛[0;32mI (15384) wifi station: Packet <192.168.89.37:6767> received from 626632896
␛[0m
␛[0;32mI (15384) wifi station: Packet <192.168.89.40:6768> sent !
␛[0m
␛[0;31mE (16384) WIFI:: >Task broadcast <192.168.89.40:6768>␛[0m
␛[0;32mI (16384) wifi station: Packet <192.168.89.40:6768> sent !
␛[0m
␛[0;31mE (17384) WIFI:: >Task broadcast <192.168.89.40:6768>␛[0m
␛[0;32mI (17384) wifi station: Packet <192.168.89.40:6768> sent !
␛[0m
␛[0;31mE (18384) WIFI:: >Task broadcast <192.168.89.40:6768>␛[0m
␛[0;32mI (18384) wifi station: Packet <192.168.89.40:6768> sent !
␛[0m
␛[0;31mE (19384) WIFI:: >Task broadcast <192.168.89.40:6768>␛[0m
␛[0;32mI (19384) wifi station: Packet <192.168.89.40:6768> sent !
␛[0m
␛[0;31mE (20384) WIFI:: >Task broadcast <192.168.89.40:6768>␛[0m
␛[0;32mI (20384) wifi station: Packet <192.168.89.40:6768> sent !
␛[0m
␛[0;32mI (20384) wifi station: Packet <192.168.89.37:6767> received from 626632896
␛[0m
␛[0;31mE (21384) WIFI:: >Task broadcast <192.168.89.40:6768>␛[0m
␛[0;32mI (21384) wifi station: Packet <192.168.89.40:6768> sent !
␛[0m
␛[0;31mE (22384) WIFI:: >Task broadcast <192.168.89.40:6768>␛[0m
␛[0;32mI (22384) wifi station: Packet <192.168.89.40:6768> sent !
␛[0m
␛[0;31mE (23384) WIFI:: >Task broadcast <192.168.89.40:6768>␛[0m
␛[0;32mI (23384) wifi station: Packet <192.168.89.40:6768> sent !
␛[0m
␛[0;31mE (24384) WIFI:: >Task broadcast <192.168.89.40:6768>␛[0m
␛[0;32mI (24384) wifi station: Packet <192.168.89.40:6768> sent !
␛[0m
␛[0;31mE (25384) WIFI:: >Task broadcast <192.168.89.40:6768>␛[0m
␛[0;32mI (25384) wifi station: Packet <192.168.89.40:6768> sent !
␛[0m
␛[0;32mI (25384) wifi station: Packet <192.168.89.37:6767> received from 626632896
␛[0m
␛[0;31mE (26384) WIFI:: >Task broadcast <192.168.89.40:6768>␛[0m
␛[0;32mI (26384) wifi station: Packet <192.168.89.40:6768> sent !
␛[0m
␛[0;31mE (27384) WIFI:: >Task broadcast <192.168.89.40:6768>␛[0m
␛[0;32mI (27384) wifi station: Packet <192.168.89.40:6768> sent !
␛[0m
I (28154) wifi: station: 24:6f:28:af:89:c8 leave, AID = 1, bss_flags is 134243, bss:0x3ffd4cd0
I (28154) wifi: new:<1,1>, old:<1,1>, ap:<1,1>, sta:<1,1>, prof:1
␛[0;32mI (28164) mesh_main: <MESH_EVENT_CHILD_DISCONNECTED>aid:1, 24:6f:28:af:89:c8␛[0m
␛[0;33mW (28164) mesh_main: <MESH_EVENT_ROUTING_TABLE_REMOVE>remove 1, new:1␛[0m
I (28174) mesh: <nvs>write assoc:0
I (28174) mesh: [scan]new scanning time:300ms
W (28184) wifi: [beacon]new interval:100ms
␛[0;31mE (28384) WIFI:: >Task broadcast <192.168.89.40:6768>␛[0m
␛[0;32mI (28384) wifi station: Packet <192.168.89.40:6768> sent !
␛[0m
␛[0;31mE (29384) WIFI:: >Task broadcast <192.168.89.40:6768>␛[0m
␛[0;32mI (29384) wifi station: Packet <192.168.89.40:6768> sent !
␛[0m
␛[0;31mE (30384) WIFI:: >Task broadcast <192.168.89.40:6768>␛[0m
␛[0;32mI (30384) wifi station: Packet <192.168.89.40:6768> sent !
␛[0m
␛[0;32mI (30384) wifi station: Packet <192.168.89.37:6767> received from 626632896
␛[0m
I (30394) wifi: new:<1,1>, old:<1,1>, ap:<1,1>, sta:<1,1>, prof:1
I (30394) wifi: station: 24:6f:28:af:89:c8 join, AID=1, bgn, 40U
␛[0;33mW (30424) mesh_main: <MESH_EVENT_ROUTING_TABLE_ADD>add 1, new:2␛[0m
I (30424) mesh: <nvs>write assoc:1
␛[0;32mI (30424) mesh_main: <MESH_EVENT_CHILD_CONNECTED>aid:1, 24:6f:28:af:89:c8␛[0m
␛[0;31mE (31384) WIFI:: >Task broadcast <192.168.89.40:6768>␛[0m
␛[0;32mI (31384) wifi station: Packet <192.168.89.40:6768> sent !
␛[0m
␛[0;31mE (32384) WIFI:: >Task broadcast <192.168.89.40:6768>␛[0m
␛[0;32mI (32384) wifi station: Packet <192.168.89.40:6768> sent !
␛[0m
␛[0;31mE (33384) WIFI:: >Task broadcast <192.168.89.40:6768>␛[0m
␛[0;32mI (33384) wifi station: Packet <192.168.89.40:6768> sent !
␛[0m
␛[0;31mE (34384) WIFI:: >Task broadcast <192.168.89.40:6768>␛[0m
␛[0;32mI (34384) wifi station: Packet <192.168.89.40:6768> sent !
␛[0m
␛[0;31mE (35384) WIFI:: >Task broadcast <192.168.89.40:6768>␛[0m
␛[0;32mI (35384) wifi station: Packet <192.168.89.37:6767> received from 626632896
␛[0m
␛[0;32mI (35384) wifi station: Packet <192.168.89.40:6768> sent !
␛[0m
I (36144) wifi: station: 24:6f:28:af:89:c8 leave, AID = 1, bss_flags is 134243, bss:0x3ffd3190
I (36144) wifi: new:<1,1>, old:<1,1>, ap:<1,1>, sta:<1,1>, prof:1
␛[0;32mI (36144) mesh_main: <MESH_EVENT_CHILD_DISCONNECTED>aid:1, 24:6f:28:af:89:c8␛[0m
␛[0;33mW (36154) mesh_main: <MESH_EVENT_ROUTING_TABLE_REMOVE>remove 1, new:1␛[0m
I (36164) mesh: <nvs>write assoc:0
W (36164) wifi: [beacon]interval:100ms
␛[0;31mE (36384) WIFI:: >Task broadcast <192.168.89.40:6768>␛[0m
␛[0;32mI (36384) wifi station: Packet <192.168.89.40:6768> sent !
␛[0m
␛[0;31mE (37384) WIFI:: >Task broadcast <192.168.89.40:6768>␛[0m
␛[0;32mI (37384) wifi station: Packet <192.168.89.40:6768> sent !
␛[0m
I (38354) wifi: new:<1,1>, old:<1,1>, ap:<1,1>, sta:<1,1>, prof:1
I (38354) wifi: station: 24:6f:28:af:89:c8 join, AID=1, bgn, 40U
␛[0;31mE (38384) WIFI:: >Task broadcast <192.168.89.40:6768>␛[0m
␛[0;33mW (38384) mesh_main: <MESH_EVENT_ROUTING_TABLE_ADD>add 1, new:2␛[0m
␛[0;32mI (38384) wifi station: Packet <192.168.89.40:6768> sent !
␛[0m
I (38384) mesh: <nvs>write assoc:1
␛[0;32mI (38394) mesh_main: <MESH_EVENT_CHILD_CONNECTED>aid:1, 24:6f:28:af:89:c8␛[0m
␛[0;31mE (39384) WIFI:: >Task broadcast <192.168.89.40:6768>␛[0m
␛[0;32mI (39384) wifi station: Packet <192.168.89.40:6768> sent !
␛[0m
␛[0;31mE (40384) WIFI:: >Task broadcast <192.168.89.40:6768>␛[0m
␛[0;32mI (40384) wifi station: Packet <192.168.89.40:6768> sent !
␛[0m
␛[0;32mI (40384) wifi station: Packet <192.168.89.37:6767> received from 626632896
␛[0m
␛[0;31mE (41384) WIFI:: >Task broadcast <192.168.89.40:6768>␛[0m
␛[0;32mI (41384) wifi station: Packet <192.168.89.40:6768> sent !
␛[0m
␛[0;31mE (42384) WIFI:: >Task broadcast <192.168.89.40:6768>␛[0m
␛[0;32mI (42384) wifi station: Packet <192.168.89.40:6768> sent !
␛[0m
␛[0;31mE (43384) WIFI:: >Task broadcast <192.168.89.40:6768>␛[0m
␛[0;32mI (43384) wifi station: Packet <192.168.89.40:6768> sent !
␛[0m
␛[0;31mE (44384) WIFI:: >Task broadcast <192.168.89.40:6768>␛[0m
␛[0;32mI (44384) wifi station: Packet <192.168.89.40:6768> sent !
␛[0m
␛[0;31mE (45384) WIFI:: >Task broadcast <192.168.89.40:6768>␛[0m
␛[0;32mI (45384) wifi station: Packet <192.168.89.37:6767> received from 626632896
␛[0m
␛[0;32mI (45384) wifi station: Packet <192.168.89.40:6768> sent !
␛[0m
I (46164) mesh: [scan]new scanning time:600ms
W (46164) wifi: [beacon]new interval:300ms
␛[0;31mE (46384) WIFI:: >Task broadcast <192.168.89.40:6768>␛[0m
␛[0;32mI (46384) wifi station: Packet <192.168.89.40:6768> sent !
␛[0m
␛[0;31mE (47384) WIFI:: >Task broadcast <192.168.89.40:6768>␛[0m
␛[0;32mI (47384) wifi station: Packet <192.168.89.40:6768> sent !
␛[0m
␛[0;31mE (48384) WIFI:: >Task broadcast <192.168.89.40:6768>␛[0m
␛[0;32mI (48384) wifi station: Packet <192.168.89.40:6768> sent !
␛[0m
␛[0;31mE (49384) WIFI:: >Task broadcast <192.168.89.40:6768>␛[0m
␛[0;32mI (49384) wifi station: Packet <192.168.89.40:6768> sent !
␛[0m
␛[0;31mE (50384) WIFI:: >Task broadcast <192.168.89.40:6768>␛[0m
␛[0;32mI (50384) wifi station: Packet <192.168.89.40:6768> sent !
␛[0m
␛[0;32mI (50384) wifi station: Packet <192.168.89.37:6767> received from 626632896
␛[0m
␛[0;31mE (51384) WIFI:: >Task broadcast <192.168.89.40:6768>␛[0m
1 -- 19 -- 192 --
1 -- 16 -- 168 -- 
8 -- 89 --
3 -- 37 --
␛[0;32mI (51384) WIFI:: MESSAGE RECEIVED >> <192.168.89.37:6767>
␛[0m
␛[0;32mI (51384) WIFI:: IP ADDRESS PARSED >> 192.168.89.37:6767
␛[0m
␛[0;31mE (51394) WIFI:: >> We are connected to the external IP here!!!
␛[0m
I (51394) mesh: <MESH_NWK_ROOT_TODS_STATE>toDS:1
␛[0;32mI (51404) mesh_main: size:2/2,send_count:0␛[0m
␛[0;32mI (51404) mesh_main: <MESH_EVENT_TODS_REACHABLE>state:1␛[0m
␛[0;32mI (51404) WIFI::  >>ROOT !!!  sent 192 168 89 37!
␛[0m
␛[0;33mW (51424) mesh_main: [ROOT-2-UNICAST:0][L:1][rtableSize:2]parent:c6:ad:34:10:1b:52 to 24:6f:28:ab:41:20, heap:167592[err:0x0, proto:0, tos:0]␛[0m
␛[0;32mI (51434) WIFI::  >>ROOT !!!  sent 192 168 89 37!
␛[0m
␛[0;33mW (51434) mesh_main: [ROOT-2-UNICAST:0][L:1][rtableSize:2]parent:c6:ad:34:10:1b:52 to 24:6f:28:af:89:c8, heap:167592[err:0x0, proto:0, tos:0]␛[0m
␛[0;32mI (51454) WIFI:: >> START COMMUNICATION TO DS <<
␛[0m
␛[0;32mI (51454) WIFI::  ---- NO INFO YET --- 
␛[0m
***ERROR*** A stack overflow in task TODS_COMMUNICAT has been detected.
abort() was called at PC 0x40086e9c on core 1

ELF file SHA256: 0000000000000000000000000000000000000000000000000000000000000000

Backtrace: 0x40086b67:0x3ffd5780 0x40086e85:0x3ffd57a0 0x40086e9c:0x3ffd57c0 0x4008cbed:0x3ffd57e0 0x4008bfd8:0x3ffd5800 0x4008bf8e:0x00000000

Rebooting...
ets Jun  8 2016 00:22:57

rst:0xc (SW_CPU_RESET),boot:0x13 (SPI_FAST_FLASH_BOOT)
configsip: 0, SPIWP:0xee
clk_drv:0x00,q_drv:0x00,d_drv:0x00,cs0_drv:0x00,hd_drv:0x00,wp_drv:0x00
mode:DIO, clock div:2
load:0x3fff0018,len:4
load:0x3fff001c,len:6292
load:0x40078000,len:10112
load:0x40080400,len:6492
entry 0x40080750
␛[0;32mI (29) boot: ESP-IDF 3.30300.190916 2nd stage bootloader␛[0m
␛[0;32mI (29) boot: compile time 19:46:26␛[0m
␛[0;32mI (29) boot: Enabling RNG early entropy source...␛[0m
␛[0;32mI (34) boot: SPI Speed      : 40MHz␛[0m
␛[0;32mI (38) boot: SPI Mode       : DIO␛[0m
␛[0;32mI (42) boot: SPI Flash Size : 4MB␛[0m
␛[0;32mI (46) boot: Partition Table:␛[0m
␛[0;32mI (50) boot: ## Label            Usage          Type ST Offset   Length␛[0m
␛[0;32mI (57) boot:  0 nvs              WiFi data        01 02 00009000 00006000␛[0m
␛[0;32mI (65) boot:  1 phy_init         RF data          01 01 0000f000 00001000␛[0m
␛[0;32mI (72) boot:  2 factory          factory app      00 00 00010000 00100000␛[0m
␛[0;32mI (80) boot: End of partition table␛[0m
␛[0;32mI (84) esp_image: segment 0: paddr=0x00010020 vaddr=0x3f400020 size=0x221c4 (139716) map␛[0m
␛[0;32mI (140) esp_image: segment 1: paddr=0x000321ec vaddr=0x3ffbdb60 size=0x03344 ( 13124) load␛[0m
␛[0;32mI (145) esp_image: segment 2: paddr=0x00035538 vaddr=0x40080000 size=0x00400 (  1024) load␛[0m
␛[0;32mI (147) esp_image: segment 3: paddr=0x00035940 vaddr=0x40080400 size=0x0a6d0 ( 42704) load␛[0m
␛[0;32mI (172) esp_image: segment 4: paddr=0x00040018 vaddr=0x400d0018 size=0x8dadc (580316) map␛[0m
␛[0;32mI (369) esp_image: segment 5: paddr=0x000cdafc vaddr=0x4008aad0 size=0x055e4 ( 21988) load␛[0m
␛[0;32mI (387) boot: Loaded app from partition at offset 0x10000␛[0m
␛[0;32mI (387) boot: Disabling RNG early entropy source...␛[0m
␛[0;32mI (387) cpu_start: Pro cpu up.␛[0m
␛[0;32mI (391) cpu_start: Application information:␛[0m
␛[0;32mI (396) cpu_start: Project name:     tema1␛[0m
␛[0;32mI (401) cpu_start: App version:      1.0.0␛[0m
␛[0;32mI (405) cpu_start: Compile time:     Apr  6 2020 19:46:28␛[0m
␛[0;32mI (411) cpu_start: ELF file SHA256:  0000000000000000...␛[0m
␛[0;32mI (417) cpu_start: ESP-IDF:          3.30300.190916␛[0m
␛[0;32mI (423) cpu_start: Starting app cpu, entry point is 0x4008160c␛[0m
␛[0;32mI (415) cpu_start: App cpu up.␛[0m
␛[0;32mI (434) heap_init: Initializing. RAM available for dynamic allocation:␛[0m
␛[0;32mI (440) heap_init: At 3FFAE6E0 len 0000F480 (61 KiB): DRAM␛[0m
␛[0;32mI (447) heap_init: At 3FFC7E68 len 00018198 (96 KiB): DRAM␛[0m
␛[0;32mI (453) heap_init: At 3FFE0440 len 00003AE0 (14 KiB): D/IRAM␛[0m
␛[0;32mI (459) heap_init: At 3FFE4350 len 0001BCB0 (111 KiB): D/IRAM␛[0m
␛[0;32mI (465) heap_init: At 400900B4 len 0000FF4C (63 KiB): IRAM␛[0m
␛[0;32mI (472) cpu_start: Pro cpu start user code␛[0m
␛[0;32mI (154) cpu_start: Chip Revision: 1␛[0m
␛[0;33mW (155) cpu_start: Chip revision is higher than the one configured in menuconfig. Suggest to upgrade it.␛[0m
␛[0;32mI (158) cpu_start: Starting scheduler on PRO CPU.␛[0m
␛[0;32mI (0) cpu_start: Starting scheduler on APP CPU.␛[0m
I (244) wifi: wifi driver task: 3ffb78b8, prio:23, stack:3584, core=0
␛[0;32mI (244) system_api: Base MAC address is not set, read default base MAC address from BLK0 of EFUSE␛[0m
␛[0;32mI (244) system_api: Base MAC address is not set, read default base MAC address from BLK0 of EFUSE␛[0m
I (274) wifi: wifi firmware version: aeed694
I (274) wifi: config NVS flash: enabled
I (274) wifi: config nano formating: disabled
I (274) wifi: Init dynamic tx buffer num: 32
I (284) wifi: Init data frame dynamic rx buffer num: 32
I (284) wifi: Init management frame dynamic rx buffer num: 32
I (294) wifi: Init management short buffer num: 32
I (294) wifi: Init static rx buffer size: 1600
I (304) wifi: Init static rx buffer num: 10
I (304) wifi: Init dynamic rx buffer num: 32

Brownout detector was triggered

ets Jun  8 2016 00:22:57

rst:0xc (SW_CPU_RESET),boot:0x13 (SPI_FAST_FLASH_BOOT)
configsip: 0, SPIWP:0xee
clk_drv:0x00,q_drv:0x00,d_drv:0x00,cs0_drv:0x00,hd_drv:0x00,wp_drv:0x00
mode:DIO, clock div:2
load:0x3fff0018,len:4
load:0x3fff001c,len:6292
load:0x40078000,len:10112
load:0x40080400,len:6492
entry 0x40080750
␛[0;32mI (29) boot: ESP-IDF 3.30300.190916 2nd stage bootloader␛[0m
␛[0;32mI (29) boot: compile time 19:46:26␛[0m
␛[0;32mI (29) boot: Enabling RNG early entropy source...␛[0m
␛[0;32mI (34) boot: SPI Speed      : 40MHz␛[0m
␛[0;32mI (38) boot: SPI Mode       : DIO␛[0m
␛[0;32mI (42) boot: SPI Flash Size : 4MB␛[0m
␛[0;32mI (46) boot: Partition Table:␛[0m
␛[0;32mI (50) boot: ## Label            Usage          Type ST Offset   Length␛[0m
␛[0;32mI (57) boot:  0 nvs              WiFi data        01 02 00009000 00006000␛[0m
␛[0;32mI (65) boot:  1 phy_init         RF data          01 01 0000f000 00001000␛[0m
␛[0;32mI (72) boot:  2 factory          factory app      00 00 00010000 00100000␛[0m
␛[0;32mI (80) boot: End of partition table␛[0m
␛[0;32mI (84) esp_image: segment 0: paddr=0x00010020 vaddr=0x3f400020 size=0x221c4 (139716) map␛[0m
␛[0;32mI (140) esp_image: segment 1: paddr=0x000321ec vaddr=0x3ffbdb60 size=0x03344 ( 13124) load␛[0m
␛[0;32mI (145) esp_image: segment 2: paddr=0x00035538 vaddr=0x40080000 size=0x00400 (  1024) load␛[0m
␛[0;32mI (147) esp_image: segment 3: paddr=0x00035940 vaddr=0x40080400 size=0x0a6d0 ( 42704) load␛[0m
␛[0;32mI (172) esp_image: segment 4: paddr=0x00040018 vaddr=0x400d0018 size=0x8dadc (580316) map␛[0m
␛[0;32mI (369) esp_image: segment 5: paddr=0x000cdafc vaddr=0x4008aad0 size=0x055e4 ( 21988) load␛[0m
␛[0;32mI (387) boot: Loaded app from partition at offset 0x10000␛[0m
␛[0;32mI (387) boot: Disabling RNG early entropy source...␛[0m
␛[0;32mI (387) cpu_start: Pro cpu up.␛[0m
␛[0;32mI (391) cpu_start: Application information:␛[0m
␛[0;32mI (396) cpu_start: Project name:     tema1␛[0m
␛[0;32mI (401) cpu_start: App version:      1.0.0␛[0m
␛[0;32mI (405) cpu_start: Compile time:     Apr  6 2020 19:46:28␛[0m
␛[0;32mI (411) cpu_start: ELF file SHA256:  0000000000000000...␛[0m
␛[0;32mI (417) cpu_start: ESP-IDF:          3.30300.190916␛[0m
␛[0;32mI (423) cpu_start: Starting app cpu, entry point is 0x4008160c␛[0m
␛[0;32mI (415) cpu_start: App cpu up.␛[0m
␛[0;32mI (434) heap_init: Initializing. RAM available for dynamic allocation:␛[0m
␛[0;32mI (440) heap_init: At 3FFAE6E0 len 0000F480 (61 KiB): DRAM␛[0m
␛[0;32mI (447) heap_init: At 3FFC7E68 len 00018198 (96 KiB): DRAM␛[0m
␛[0;32mI (453) heap_init: At 3FFE0440 len 00003AE0 (14 KiB): D/IRAM␛[0m
␛[0;32mI (459) heap_init: At 3FFE4350 len 0001BCB0 (111 KiB): D/IRAM␛[0m
␛[0;32mI (466) heap_init: At 400900B4 len 0000FF4C (63 KiB): IRAM␛[0m
␛[0;32mI (472) cpu_start: Pro cpu start user code␛[0m
␛[0;32mI (154) cpu_start: Chip Revision: 1␛[0m
␛[0;33mW (155) cpu_start: Chip revision is higher than the one configured in menuconfig. Suggest to upgrade it.␛[0m
␛[0;32mI (158) cpu_start: Starting scheduler on PRO CPU.␛[0m
␛[0;32mI (0) cpu_start: Starting scheduler on APP CPU.␛[0m
I (244) wifi: wifi driver task: 3ffb78b8, prio:23, stack:3584, core=0
␛[0;32mI (244) system_api: Base MAC address is not set, read default base MAC address from BLK0 of EFUSE␛[0m
␛[0;32mI (244) system_api: Base MAC address is not set, read default base MAC address from BLK0 of EFUSE␛[0m
I (274) wifi: wifi firmware version: aeed694
I (274) wifi: config NVS flash: enabled
I (274) wifi: config nano formating: disabled
I (274) wifi: Init dynamic tx buffer num: 32
I (284) wifi: Init data frame dynamic rx buffer num: 32
I (284) wifi: Init management frame dynamic rx buffer num: 32
I (294) wifi: Init management short buffer num: 32
I (294) wifi: Init static rx buffer size: 1600
I (304) wifi: Init static rx buffer num: 10
I (304) wifi: Init dynamic rx buffer num: 32

Brownout detector was triggered

ets Jun  8 2016 00:22:57

rst:0xc (SW_CPU_RESET),boot:0x13 (SPI_FAST_FLASH_BOOT)
configsip: 0, SPIWP:0xee
clk_drv:0x00,q_drv:0x00,d_drv:0x00,cs0_drv:0x00,hd_drv:0x00,wp_drv:0x00
mode:DIO, clock div:2
load:0x3fff0018,len:4
load:0x3fff001c,len:6292
load:0x40078000,len:10112
load:0x40080400,len:6492
entry 0x40080750
␛[0;32mI (29) boot: ESP-IDF 3.30300.190916 2nd stage bootloader␛[0m
␛[0;32mI (29) boot: compile time 19:46:26␛[0m
␛[0;32mI (29) boot: Enabling RNG early entropy source...␛[0m
␛[0;32mI (34) boot: SPI Speed      : 40MHz␛[0m
␛[0;32mI (38) boot: SPI Mode       : DIO␛[0m
␛[0;32mI (42) boot: SPI Flash Size : 4MB␛[0m
␛[0;32mI (46) boot: Partition Table:␛[0m
␛[0;32mI (50) boot: ## Label            Usage          Type ST Offset   Length␛[0m
␛[0;32mI (57) boot:  0 nvs              WiFi data        01 02 00009000 00006000␛[0m
␛[0;32mI (65) boot:  1 phy_init         RF data          01 01 0000f000 00001000␛[0m
␛[0;32mI (72) boot:  2 factory          factory app      00 00 00010000 00100000␛[0m
␛[0;32mI (80) boot: End of partition table␛[0m
␛[0;32mI (84) esp_image: segment 0: paddr=0x00010020 vaddr=0x3f400020 size=0x221c4 (139716) map␛[0m
␛[0;32mI (140) esp_image: segment 1: paddr=0x000321ec vaddr=0x3ffbdb60 size=0x03344 ( 13124) load␛[0m
␛[0;32mI (145) esp_image: segment 2: paddr=0x00035538 vaddr=0x40080000 size=0x00400 (  1024) load␛[0m
␛[0;32mI (147) esp_image: segment 3: paddr=0x00035940 vaddr=0x40080400 size=0x0a6d0 ( 42704) load␛[0m
␛[0;32mI (172) esp_image: segment 4: paddr=0x00040018 vaddr=0x400d0018 size=0x8dadc (580316) map␛[0m
␛[0;32mI (369) esp_image: segment 5: paddr=0x000cdafc vaddr=0x4008aad0 size=0x055e4 ( 21988) load␛[0m
␛[0;32mI (387) boot: Loaded app from partition at offset 0x10000␛[0m
␛[0;32mI (387) boot: Disabling RNG early entropy source...␛[0m
␛[0;32mI (387) cpu_start: Pro cpu up.␛[0m
␛[0;32mI (391) cpu_start: Application information:␛[0m
␛[0;32mI (396) cpu_start: Project name:     tema1␛[0m
␛[0;32mI (401) cpu_start: App version:      1.0.0␛[0m
␛[0;32mI (405) cpu_start: Compile time:     Apr  6 2020 19:46:28␛[0m
␛[0;32mI (411) cpu_start: ELF file SHA256:  0000000000000000...␛[0m
␛[0;32mI (417) cpu_start: ESP-IDF:          3.30300.190916␛[0m
␛[0;32mI (423) cpu_start: Starting app cpu, entry point is 0x4008160c␛[0m
␛[0;32mI (415) cpu_start: App cpu up.␛[0m
␛[0;32mI (434) heap_init: Initializing. RAM available for dynamic allocation:␛[0m
␛[0;32mI (440) heap_init: At 3FFAE6E0 len 0000F480 (61 KiB): DRAM␛[0m
␛[0;32mI (447) heap_init: At 3FFC7E68 len 00018198 (96 KiB): DRAM␛[0m
␛[0;32mI (453) heap_init: At 3FFE0440 len 00003AE0 (14 KiB): D/IRAM␛[0m
␛[0;32mI (459) heap_init: At 3FFE4350 len 0001BCB0 (111 KiB): D/IRAM␛[0m
␛[0;32mI (466) heap_init: At 400900B4 len 0000FF4C (63 KiB): IRAM␛[0m
␛[0;32mI (472) cpu_start: Pro cpu start user code␛[0m
␛[0;32mI (154) cpu_start: Chip Revision: 1␛[0m
␛[0;33mW (155) cpu_start: Chip revision is higher than the one configured in menuconfig. Suggest to upgrade it.␛[0m
␛[0;32mI (158) cpu_start: Starting scheduler on PRO CPU.␛[0m
␛[0;32mI (0) cpu_start: Starting scheduler on APP CPU.␛[0m
I (244) wifi: wifi driver task: 3ffb78b8, prio:23, stack:3584, core=0
␛[0;32mI (244) system_api: Base MAC address is not set, read default base MAC address from BLK0 of EFUSE␛[0m
␛[0;32mI (244) system_api: Base MAC address is not set, read default base MAC address from BLK0 of EFUSE␛[0m
I (274) wifi: wifi firmware version: aeed694
I (274) wifi: config NVS flash: enabled
I (274) wifi: config nano formating: disabled
I (274) wifi: Init dynamic tx buffer num: 32
I (284) wifi: Init data frame dynamic rx buffer num: 32
I (284) wifi: Init management frame dynamic rx buffer num: 32
I (294) wifi: Init management short buffer num: 32
I (294) wifi: Init static rx buffer size: 1600
I (304) wifi: Init static rx buffer num: 10
I (304) wifi: Init dynamic rx buffer num: 32

Brownout detector was triggered

ets Jun  8 2016 00:22:57

rst:0xc (SW_CPU_RESET),boot:0x13 (SPI_FAST_FLASH_BOOT)
configsip: 0, SPIWP:0xee
clk_drv:0x00,q_drv:0x00,d_drv:0x00,cs0_drv:0x00,hd_drv:0x00,wp_drv:0x00
mode:DIO, clock div:2
load:0x3fff0018,len:4
load:0x3fff001c,len:6292
load:0x40078000,len:10112
load:0x40080400,len:6492
entry 0x40080750
␛[0;32mI (29) boot: ESP-IDF 3.30300.190916 2nd stage bootloader␛[0m
␛[0;32mI (29) boot: compile time 19:46:26␛[0m
␛[0;32mI (29) boot: Enabling RNG early entropy source...␛[0m
␛[0;32mI (34) boot: SPI Speed      : 40MHz␛[0m
␛[0;32mI (38) boot: SPI Mode       : DIO␛[0m
␛[0;32mI (42) boot: SPI Flash Size : 4MB␛[0m
␛[0;32mI (46) boot: Partition Table:␛[0m
␛[0;32mI (50) boot: ## Label            Usage          Type ST Offset   Length␛[0m
␛[0;32mI (57) boot:  0 nvs              WiFi data        01 02 00009000 00006000␛[0m
␛[0;32mI (65) boot:  1 phy_init         RF data          01 01 0000f000 00001000␛[0m
␛[0;32mI (72) boot:  2 factory          factory app      00 00 00010000 00100000␛[0m
␛[0;32mI (80) boot: End of partition table␛[0m
␛[0;32mI (84) esp_image: segment 0: paddr=0x00010020 vaddr=0x3f400020 size=0x221c4 (139716) map␛[0m
␛[0;32mI (140) esp_image: segment 1: paddr=0x000321ec vaddr=0x3ffbdb60 size=0x03344 ( 13124) load␛[0m
␛[0;32mI (145) esp_image: segment 2: paddr=0x00035538 vaddr=0x40080000 size=0x00400 (  1024) load␛[0m
␛[0;32mI (147) esp_image: segment 3: paddr=0x00035940 vaddr=0x40080400 size=0x0a6d0 ( 42704) load␛[0m
␛[0;32mI (172) esp_image: segment 4: paddr=0x00040018 vaddr=0x400d0018 size=0x8dadc (580316) map␛[0m
␛[0;32mI (369) esp_image: segment 5: paddr=0x000cdafc vaddr=0x4008aad0 size=0x055e4 ( 21988) load␛[0m
␛[0;32mI (387) boot: Loaded app from partition at offset 0x10000␛[0m
␛[0;32mI (387) boot: Disabling RNG early entropy source...␛[0m
␛[0;32mI (387) cpu_start: Pro cpu up.␛[0m
␛[0;32mI (391) cpu_start: Application information:␛[0m
␛[0;32mI (396) cpu_start: Project name:     tema1␛[0m
␛[0;32mI (401) cpu_start: App version:      1.0.0␛[0m
␛[0;32mI (405) cpu_start: Compile time:     Apr  6 2020 19:46:28␛[0m
␛[0;32mI (411) cpu_start: ELF file SHA256:  0000000000000000...␛[0m
␛[0;32mI (417) cpu_start: ESP-IDF:          3.30300.190916␛[0m
␛[0;32mI (423) cpu_start: Starting app cpu, entry point is 0x4008160c␛[0m
␛[0;32mI (415) cpu_start: App cpu up.␛[0m
␛[0;32mI (434) heap_init: Initializing. RAM available for dynamic allocation:␛[0m
␛[0;32mI (440) heap_init: At 3FFAE6E0 len 0000F480 (61 KiB): DRAM␛[0m
␛[0;32mI (447) heap_init: At 3FFC7E68 len 00018198 (96 KiB): DRAM␛[0m
␛[0;32mI (453) heap_init: At 3FFE0440 len 00003AE0 (14 KiB): D/IRAM␛[0m
␛[0;32mI (459) heap_init: At 3FFE4350 len 0001BCB0 (111 KiB): D/IRAM␛[0m
␛[0;32mI (466) heap_init: At 400900B4 len 0000FF4C (63 KiB): IRAM␛[0m
␛[0;32mI (472) cpu_start: Pro cpu start user code␛[0m
␛[0;32mI (154) cpu_start: Chip Revision: 1␛[0m
␛[0;33mW (155) cpu_start: Chip revision is higher than the one configured in menuconfig. Suggest to upgrade it.␛[0m
␛[0;32mI (158) cpu_start: Starting scheduler on PRO CPU.␛[0m
␛[0;32mI (0) cpu_start: Starting scheduler on APP CPU.␛[0m
I (244) wifi: wifi driver task: 3ffb78b8, prio:23, stack:3584, core=0
␛[0;32mI (244) system_api: Base MAC address is not set, read default base MAC address from BLK0 of EFUSE␛[0m
␛[0;32mI (244) system_api: Base MAC address is not set, read default base MAC address from BLK0 of EFUSE␛[0m
I (274) wifi: wifi firmware version: aeed694
I (274) wifi: config NVS flash: enabled
I (274) wifi: config nano formating: disabled
I (274) wifi: Init dynamic tx buffer num: 32
I (284) wifi: Init data frame dynamic rx buffer num: 32
I (284) wifi: Init management frame dynamic rx buffer num: 32
I (294) wifi: Init management short buffer num: 32
I (294) wifi: Init static rx buffer size: 1600
I (304) wifi: Init static rx buffer num: 10
I (304) wifi: Init dynamic rx buffer num: 32
␛[0;32mI (394) phy: phy_version: 4102, 2fa7a43, Jul 15 2019, 13:06:06, 0, 0␛[0m
I (394) wifi: mode : sta (24:6f:28:ab:41:20) + softAP (24:6f:28:ab:41:21)
I (404) wifi: Total power save buffer number: 16
I (404) wifi: Init max length of beacon: 752/752
I (404) wifi: Init max length of beacon: 752/752
W (414) wifi: [beacon]new interval:100ms
I (414) mesh: <nvs>read layer:1
I (424) mesh: <nvs>read assoc:1
I (1274) wifi: Set ps type: 0

I (1284) wifi: mode : sta (24:6f:28:ab:41:20)
I (1284) mesh: <MESH_NWK_LOOK_FOR_NETWORK>need_scan:0x1, need_scan_router:0x0, look_for_nwk_count:1
␛[0;32mI (1284) mesh_main: <MESH_EVENT_STARTED>ID:11:11:22:11:11:11␛[0m
␛[0;32mI (1294) mesh_main: mesh starts successfully, heap:185504, root not fixed
␛[0m
I (1584) mesh: [S2]lab-iot, c6:ad:34:10:1b:52, channel:1, rssi:-64
I (1584) mesh: find router:[ssid_len:7]lab-iot, rssi:-64, c6:ad:34:10:1b:52(encrypted), new channel:1, old channel:0
I (1594) mesh: [FIND][ch:1]AP:7, otherID:0, MAP:1, idle:1, candidate:0, root:0[c6:ad:34:10:1b:52]router found
I (1604) mesh: [FIND:1]find a network, channel:1, cfg<channel:1, router:lab-iot, 00:00:00:00:00:00>

␛[0;32mI (1614) mesh_main: <MESH_EVENT_FIND_NETWORK>new channel:1, router BSSID:00:00:00:00:00:00␛[0m
I (1624) wifi: mode : sta (24:6f:28:ab:41:20) + softAP (24:6f:28:ab:41:21)
W (1634) wifi: <MESH AP>adjust channel:1, secondary channel offset:1(40U)
I (1634) wifi: Total power save buffer number: 16
I (1944) mesh: [SCAN][ch:1]AP:7, other(ID:0, RD:0), MAP:1, idle:1, candidate:1, root:0, topMAP:0[c:1,i:1][c6:ad:34:10:1b:52]router found<>
I (1944) mesh: 1022<pre>my_vote_num:0, voter_num/max_connection:3, 2nd_layer_count:0
I (1954) mesh: 6104[SCAN]init rc[ttl:127/votes:2][24:6f:28:af:89:c9,-72]
I (1954) mesh: 1250, vote myself, router rssi:-64 > voted rc_rssi:-72
I (1964) mesh: [SCAN:1/10]rc[128][24:6f:28:ab:41:21,-64], self[24:6f:28:ab:41:20,-64,reason:0,votes:1,idle][mine:1,voter:2(0.50)percent:1.00][128,1,24:6f:28:ab:41:21]

I (2274) mesh: [SCAN][ch:1]AP:9, other(ID:0, RD:0), MAP:1, idle:1, candidate:1, root:0, topMAP:0[c:1,i:1][c6:ad:34:10:1b:52]router found<>
I (2284) mesh: 1022<pre>my_vote_num:0, voter_num/max_connection:3, 2nd_layer_count:0
I (2284) mesh: [SCAN:2/10]rc[128][24:6f:28:ab:41:21,-64], self[24:6f:28:ab:41:20,-64,reason:0,votes:1,idle][mine:1,voter:2(0.50)percent:1.00][128,1,24:6f:28:ab:41:21]

I (2604) mesh: [SCAN][ch:1]AP:7, other(ID:0, RD:0), MAP:1, idle:1, candidate:1, root:0, topMAP:0[c:1,i:1][c6:ad:34:10:1b:52]router found<>
I (2604) mesh: 1022<pre>my_vote_num:0, voter_num/max_connection:3, 2nd_layer_count:0
I (2614) mesh: [SCAN:3/10]rc[128][24:6f:28:ab:41:21,-64], self[24:6f:28:ab:41:20,-64,reason:0,votes:1,idle][mine:1,voter:2(0.50)percent:1.00][128,1,24:6f:28:ab:41:21]

I (2934) mesh: [SCAN][ch:1]AP:7, other(ID:0, RD:0), MAP:1, idle:1, candidate:1, root:0, topMAP:0[c:1,i:1][c6:ad:34:10:1b:52]router found<>
I (2934) mesh: 1022<pre>my_vote_num:0, voter_num/max_connection:3, 2nd_layer_count:0
I (2944) mesh: [SCAN:4/10]rc[128][24:6f:28:ab:41:21,-64], self[24:6f:28:ab:41:20,-64,reason:0,votes:2,idle][mine:2,voter:2(1.00)percent:1.00][128,2,24:6f:28:ab:41:21]

I (3254) mesh: [SCAN][ch:1]AP:9, other(ID:0, RD:0), MAP:1, idle:1, candidate:1, root:0, topMAP:0[c:1,i:1][c6:ad:34:10:1b:52]router found<>
I (3254) mesh: 1022<pre>my_vote_num:0, voter_num/max_connection:3, 2nd_layer_count:0
I (3264) mesh: [SCAN:5/10]rc[128][24:6f:28:ab:41:21,-64], self[24:6f:28:ab:41:20,-64,reason:0,votes:2,idle][mine:2,voter:2(1.00)percent:1.00][128,2,24:6f:28:ab:41:21]

I (3584) mesh: [SCAN][ch:1]AP:6, other(ID:0, RD:0), MAP:1, idle:1, candidate:1, root:0, topMAP:0[c:1,i:1][c6:ad:34:10:1b:52]router found<>
I (3584) mesh: 1022<pre>my_vote_num:0, voter_num/max_connection:3, 2nd_layer_count:0
I (3594) mesh: [SCAN:6/10]rc[128][24:6f:28:ab:41:21,-64], self[24:6f:28:ab:41:20,-64,reason:0,votes:2,idle][mine:2,voter:2(1.00)percent:1.00][128,2,24:6f:28:ab:41:21]

I (3904) mesh: [SCAN][ch:1]AP:7, other(ID:0, RD:0), MAP:1, idle:1, candidate:1, root:0, topMAP:0[c:1,i:1][c6:ad:34:10:1b:52]router found<>
I (3904) mesh: 1022<pre>my_vote_num:0, voter_num/max_connection:3, 2nd_layer_count:0
I (3914) mesh: [SCAN:7/10]rc[128][24:6f:28:ab:41:21,-64], self[24:6f:28:ab:41:20,-64,reason:0,votes:2,idle][mine:2,voter:2(1.00)percent:1.00][128,2,24:6f:28:ab:41:21]

I (4234) mesh: [SCAN][ch:1]AP:8, other(ID:0, RD:0), MAP:1, idle:1, candidate:1, root:0, topMAP:0[c:1,i:1][c6:ad:34:10:1b:52]router found<>
I (4234) mesh: 1022<pre>my_vote_num:0, voter_num/max_connection:3, 2nd_layer_count:0
I (4244) mesh: [SCAN:8/10]rc[128][24:6f:28:ab:41:21,-64], self[24:6f:28:ab:41:20,-64,reason:0,votes:2,idle][mine:2,voter:2(1.00)percent:1.00][128,2,24:6f:28:ab:41:21]

I (4554) mesh: [SCAN][ch:1]AP:7, other(ID:0, RD:0), MAP:1, idle:1, candidate:1, root:0, topMAP:0[c:1,i:1][c6:ad:34:10:1b:52]router found<>
I (4564) mesh: 1022<pre>my_vote_num:0, voter_num/max_connection:3, 2nd_layer_count:0
I (4564) mesh: [SCAN:9/10]rc[128][24:6f:28:ab:41:21,-64], self[24:6f:28:ab:41:20,-64,reason:0,votes:2,idle][mine:2,voter:2(1.00)percent:1.00][128,2,24:6f:28:ab:41:21]

I (4884) mesh: [SCAN][ch:1]AP:7, other(ID:0, RD:0), MAP:1, idle:1, candidate:1, root:0, topMAP:0[c:1,i:1][c6:ad:34:10:1b:52]router found<>
I (4884) mesh: 1022<pre>my_vote_num:0, voter_num/max_connection:3, 2nd_layer_count:0
I (4894) mesh: [SCAN:10/10]rc[128][24:6f:28:ab:41:21,-64], self[24:6f:28:ab:41:20,-64,reason:0,votes:2,idle][mine:2,voter:2(1.00)percent:1.00][128,2,24:6f:28:ab:41:21]

I (4914) mesh: <nvs>write layer:0
I (4914) mesh: <nvs>write assoc:0
W (4914) wifi: [beacon]interval:100ms
I (4914) mesh: [DONE]connect to router:lab-iot, channel:1, rssi:-64, c6:ad:34:10:1b:52[layer:0, assoc:0], my_vote_num:2/voter_num:2, rc[24:6f:28:ab:41:21/-64/1]
I (5054) wifi: new:<1,1>, old:<1,1>, ap:<1,1>, sta:<1,1>, prof:1
I (5054) wifi: state: init -> auth (b0)
I (5054) wifi: state: auth -> assoc (0)
I (5064) wifi: state: assoc -> run (10)
I (5074) wpa: <EAPOL>state:6
I (5074) wpa: <EAPOL>receiving the 1/4 EAPOL-Key, state:6
I (5074) wpa: <EAPOL>state:7
I (5074) wpa: <EAPOL>receiving the 3/4 EAPOL-Key, state:7
I (5074) wifi: connected with lab-iot, channel 1, 40U, bssid = c6:ad:34:10:1b:52
I (5094) wifi: pm start, type: 0

I (5094) mesh: [scan]new scanning time:600ms
W (5094) wifi: [beacon]new interval:300ms
␛[0;31mE (5094) event: invalid static ip␛[0m
I (5174) mesh: <nvs>write layer:1
␛[0;32mI (5174) mesh_main: <MESH_EVENT_PARENT_CONNECTED>layer:0-->1, parent:c6:ad:34:10:1b:52<ROOT>, ID:11:11:22:11:11:11␛[0m
␛[0;32mI (5184) mesh_main: <MESH_EVENT_TODS_REACHABLE>state:0␛[0m
␛[0;32mI (5184) mesh_main: <MESH_EVENT_ROOT_ADDRESS>root address:24:6f:28:ab:41:21␛[0m
␛[0;32mI (5734) mesh_main: <MESH_EVENT_ROOT_GOT_IP>sta ip: 192.168.89.40, mask: 255.255.255.0, gw: 192.168.89.1␛[0m
␛[0;32mI (5734) event: sta ip: 192.168.89.40, mask: 255.255.255.0, gw: 192.168.89.1␛[0m
I (6914) wifi: new:<1,1>, old:<1,1>, ap:<1,1>, sta:<1,1>, prof:1
I (6914) wifi: station: 24:6f:28:af:89:c8 join, AID=1, bgn, 40U
␛[0;33mW (6944) mesh_main: <MESH_EVENT_ROUTING_TABLE_ADD>add 1, new:2␛[0m
I (6944) mesh: <nvs>write assoc:1
␛[0;32mI (6944) mesh_main: <MESH_EVENT_CHILD_CONNECTED>aid:1, 24:6f:28:af:89:c8␛[0m
␛[0;31mE (8294) WIFI:: >Task broadcast <192.168.89.40:6768>␛[0m
␛[0;32mI (8294) wifi station: Packet <192.168.89.40:6768> sent !
␛[0m
␛[0;31mE (9294) WIFI:: >Task broadcast <192.168.89.40:6768>␛[0m
␛[0;32mI (9294) wifi station: Packet <192.168.89.40:6768> sent !
␛[0m
␛[0;32mI (9294) wifi station: Packet <192.168.89.37:6767> received from 626632896
␛[0m
␛[0;31mE (10294) WIFI:: >Task broadcast <192.168.89.40:6768>␛[0m
␛[0;32mI (10294) wifi station: Packet <192.168.89.40:6768> sent !
␛[0m
